<svg width="567" height="197" viewBox="0 0 567 197" fill="none" xmlns="http://www.w3.org/2000/svg">
<path d="M41.6045 18.0365H567" stroke="#CCCCCC" stroke-dasharray="4 2"/>
<path d="M41.6045 58.0365H567" stroke="#CCCCCC" stroke-dasharray="4 2"/>
<path d="M41.6045 98.0365H567" stroke="#CCCCCC" stroke-dasharray="4 2"/>
<path d="M41.6045 138.037H567" stroke="#CCCCCC" stroke-dasharray="4 2"/>
<path d="M41.6045 178.037H567" stroke="#CCCCCC" stroke-dasharray="4 2"/>
<path d="M11.7226 11.4848V21.6667H10.4897V12.7775H10.43L7.94422 14.428V13.1752L10.4897 11.4848H11.7226ZM17.9719 21.8059C17.2229 21.8059 16.5849 21.602 16.0579 21.1944C15.5309 20.7834 15.1282 20.1884 14.8498 19.4096C14.5714 18.6274 14.4322 17.6828 14.4322 16.5757C14.4322 15.4754 14.5714 14.5357 14.8498 13.7569C15.1315 12.9747 15.5358 12.3781 16.0628 11.9671C16.5931 11.5528 17.2295 11.3456 17.9719 11.3456C18.7143 11.3456 19.3491 11.5528 19.876 11.9671C20.4063 12.3781 20.8107 12.9747 21.0891 13.7569C21.3708 14.5357 21.5117 15.4754 21.5117 16.5757C21.5117 17.6828 21.3725 18.6274 21.0941 19.4096C20.8157 20.1884 20.413 20.7834 19.886 21.1944C19.359 21.602 18.721 21.8059 17.9719 21.8059ZM17.9719 20.7121C18.7143 20.7121 19.2911 20.3542 19.702 19.6382C20.113 18.9223 20.3185 17.9015 20.3185 16.5757C20.3185 15.6941 20.2241 14.9434 20.0351 14.3236C19.8495 13.7038 19.5811 13.2315 19.2297 12.9067C18.8817 12.5819 18.4625 12.4195 17.9719 12.4195C17.2361 12.4195 16.6611 12.7824 16.2468 13.5083C15.8325 14.2308 15.6253 15.2533 15.6253 16.5757C15.6253 17.4574 15.7181 18.2064 15.9037 18.8229C16.0893 19.4394 16.3562 19.9084 16.7042 20.2299C17.0555 20.5514 17.4781 20.7121 17.9719 20.7121ZM26.7219 21.8059C25.9729 21.8059 25.3349 21.602 24.8079 21.1944C24.2809 20.7834 23.8782 20.1884 23.5998 19.4096C23.3214 18.6274 23.1822 17.6828 23.1822 16.5757C23.1822 15.4754 23.3214 14.5357 23.5998 13.7569C23.8815 12.9747 24.2858 12.3781 24.8128 11.9671C25.3431 11.5528 25.9795 11.3456 26.7219 11.3456C27.4643 11.3456 28.0991 11.5528 28.626 11.9671C29.1563 12.3781 29.5607 12.9747 29.8391 13.7569C30.1208 14.5357 30.2617 15.4754 30.2617 16.5757C30.2617 17.6828 30.1225 18.6274 29.8441 19.4096C29.5657 20.1884 29.163 20.7834 28.636 21.1944C28.109 21.602 27.471 21.8059 26.7219 21.8059ZM26.7219 20.7121C27.4643 20.7121 28.0411 20.3542 28.452 19.6382C28.863 18.9223 29.0685 17.9015 29.0685 16.5757C29.0685 15.6941 28.9741 14.9434 28.7851 14.3236C28.5995 13.7038 28.3311 13.2315 27.9797 12.9067C27.6317 12.5819 27.2125 12.4195 26.7219 12.4195C25.9861 12.4195 25.4111 12.7824 24.9968 13.5083C24.5825 14.2308 24.3753 15.2533 24.3753 16.5757C24.3753 17.4574 24.4681 18.2064 24.6537 18.8229C24.8393 19.4394 25.1062 19.9084 25.4542 20.2299C25.8055 20.5514 26.2281 20.7121 26.7219 20.7121Z" fill="white"/>
<path d="M16.0902 62.6295L20.6442 53.6209V53.5414H15.3942V52.4476H21.9169V53.601L17.3828 62.6295H16.0902ZM26.8151 62.7687C26.2318 62.7687 25.7065 62.6527 25.2391 62.4206C24.7718 62.1886 24.3973 61.8705 24.1156 61.4661C23.8338 61.0617 23.6797 60.601 23.6532 60.084H24.8464C24.8928 60.5447 25.1016 60.9259 25.4728 61.2275C25.8473 61.5258 26.2948 61.6749 26.8151 61.6749C27.2328 61.6749 27.604 61.5771 27.9288 61.3816C28.2569 61.186 28.5138 60.9176 28.6994 60.5762C28.8883 60.2315 28.9828 59.8421 28.9828 59.4079C28.9828 58.9637 28.885 58.5677 28.6894 58.2197C28.4972 57.8683 28.232 57.5916 27.894 57.3894C27.5559 57.1872 27.1698 57.0845 26.7356 57.0812C26.424 57.0778 26.1042 57.1259 25.7761 57.2253C25.448 57.3215 25.1778 57.4457 24.9657 57.5982L23.8123 57.459L24.4288 52.4476H29.7186V53.5414H25.4629L25.1049 56.5442H25.1646C25.3734 56.3785 25.6352 56.241 25.9501 56.1316C26.265 56.0222 26.5931 55.9675 26.9345 55.9675C27.5576 55.9675 28.1127 56.1167 28.5999 56.415C29.0905 56.7099 29.4749 57.1143 29.7534 57.628C30.0351 58.1418 30.1759 58.7284 30.1759 59.388C30.1759 60.0376 30.0301 60.6176 29.7384 61.128C29.4501 61.6351 29.0524 62.0362 28.5453 62.3312C28.0382 62.6228 27.4614 62.7687 26.8151 62.7687Z" fill="white"/>
<path d="M18.0651 103.731C17.4818 103.731 16.9565 103.615 16.4891 103.383C16.0218 103.151 15.6473 102.833 15.3656 102.429C15.0838 102.025 14.9297 101.564 14.9032 101.047H16.0964C16.1428 101.507 16.3516 101.889 16.7228 102.19C17.0973 102.489 17.5448 102.638 18.0651 102.638C18.4828 102.638 18.854 102.54 19.1788 102.344C19.5069 102.149 19.7638 101.88 19.9494 101.539C20.1383 101.194 20.2328 100.805 20.2328 100.371C20.2328 99.9265 20.135 99.5304 19.9394 99.1824C19.7472 98.8311 19.482 98.5544 19.144 98.3522C18.8059 98.15 18.4198 98.0473 17.9856 98.0439C17.674 98.0406 17.3542 98.0887 17.0261 98.1881C16.698 98.2842 16.4278 98.4085 16.2157 98.561L15.0623 98.4218L15.6788 93.4104H20.9686V94.5042H16.7129L16.3549 97.507H16.4146C16.6234 97.3413 16.8852 97.2037 17.2001 97.0944C17.515 96.985 17.8431 96.9303 18.1845 96.9303C18.8076 96.9303 19.3627 97.0795 19.8499 97.3778C20.3405 97.6727 20.7249 98.0771 21.0034 98.5908C21.2851 99.1045 21.4259 99.6912 21.4259 100.351C21.4259 101 21.2801 101.58 20.9884 102.091C20.7001 102.598 20.3024 102.999 19.7953 103.294C19.2882 103.586 18.7114 103.731 18.0651 103.731ZM26.7219 103.731C25.9729 103.731 25.3349 103.528 24.8079 103.12C24.2809 102.709 23.8782 102.114 23.5998 101.335C23.3214 100.553 23.1822 99.6083 23.1822 98.5013C23.1822 97.401 23.3214 96.4613 23.5998 95.6824C23.8815 94.9002 24.2858 94.3037 24.8128 93.8927C25.3431 93.4784 25.9795 93.2712 26.7219 93.2712C27.4643 93.2712 28.0991 93.4784 28.626 93.8927C29.1563 94.3037 29.5607 94.9002 29.8391 95.6824C30.1208 96.4613 30.2617 97.401 30.2617 98.5013C30.2617 99.6083 30.1225 100.553 29.8441 101.335C29.5657 102.114 29.163 102.709 28.636 103.12C28.109 103.528 27.471 103.731 26.7219 103.731ZM26.7219 102.638C27.4643 102.638 28.0411 102.28 28.452 101.564C28.863 100.848 29.0685 99.8271 29.0685 98.5013C29.0685 97.6197 28.9741 96.869 28.7851 96.2492C28.5995 95.6294 28.3311 95.1571 27.9797 94.8323C27.6317 94.5075 27.2125 94.3451 26.7219 94.3451C25.9861 94.3451 25.4111 94.708 24.9968 95.4339C24.5825 96.1564 24.3753 97.1789 24.3753 98.5013C24.3753 99.383 24.4681 100.132 24.6537 100.748C24.8393 101.365 25.1062 101.834 25.4542 102.155C25.8055 102.477 26.2281 102.638 26.7219 102.638Z" fill="white"/>
<path d="M15.1568 144.555V143.66L18.5176 139.981C18.912 139.55 19.2368 139.176 19.492 138.858C19.7472 138.536 19.9361 138.234 20.0587 137.953C20.1847 137.668 20.2477 137.369 20.2477 137.058C20.2477 136.7 20.1615 136.39 19.9891 136.128C19.8201 135.866 19.5881 135.664 19.2931 135.522C18.9981 135.379 18.6667 135.308 18.2988 135.308C17.9077 135.308 17.5663 135.389 17.2747 135.551C16.9863 135.711 16.7626 135.934 16.6035 136.223C16.4477 136.511 16.3698 136.849 16.3698 137.237H15.1965C15.1965 136.64 15.3341 136.117 15.6092 135.666C15.8843 135.215 16.2588 134.864 16.7328 134.612C17.21 134.36 17.7453 134.234 18.3386 134.234C18.9352 134.234 19.4638 134.36 19.9245 134.612C20.3852 134.864 20.7465 135.203 21.0083 135.631C21.2702 136.059 21.4011 136.534 21.4011 137.058C21.4011 137.432 21.3331 137.799 21.1972 138.157C21.0647 138.511 20.8327 138.907 20.5012 139.345C20.1731 139.779 19.7174 140.309 19.134 140.936L16.8471 143.382V143.461H21.5801V144.555H15.1568ZM26.8151 144.694C26.2318 144.694 25.7065 144.578 25.2391 144.346C24.7718 144.114 24.3973 143.796 24.1156 143.392C23.8338 142.987 23.6797 142.527 23.6532 142.01H24.8464C24.8928 142.47 25.1016 142.851 25.4728 143.153C25.8473 143.451 26.2948 143.6 26.8151 143.6C27.2328 143.6 27.604 143.503 27.9288 143.307C28.2569 143.112 28.5138 142.843 28.6994 142.502C28.8883 142.157 28.9828 141.768 28.9828 141.333C28.9828 140.889 28.885 140.493 28.6894 140.145C28.4972 139.794 28.232 139.517 27.894 139.315C27.5559 139.113 27.1698 139.01 26.7356 139.007C26.424 139.003 26.1042 139.051 25.7761 139.151C25.448 139.247 25.1778 139.371 24.9657 139.524L23.8123 139.385L24.4288 134.373H29.7186V135.467H25.4629L25.1049 138.47H25.1646C25.3734 138.304 25.6352 138.167 25.9501 138.057C26.265 137.948 26.5931 137.893 26.9345 137.893C27.5576 137.893 28.1127 138.042 28.5999 138.341C29.0905 138.636 29.4749 139.04 29.7534 139.554C30.0351 140.067 30.1759 140.654 30.1759 141.314C30.1759 141.963 30.0301 142.543 29.7384 143.054C29.4501 143.561 29.0524 143.962 28.5453 144.257C28.0382 144.548 27.4614 144.694 26.8151 144.694Z" fill="white"/>
<path d="M26.7219 178.657C25.9729 178.657 25.3349 178.453 24.8079 178.046C24.2809 177.635 23.8782 177.04 23.5998 176.261C23.3214 175.479 23.1822 174.534 23.1822 173.427C23.1822 172.327 23.3214 171.387 23.5998 170.608C23.8815 169.826 24.2858 169.229 24.8128 168.818C25.3431 168.404 25.9795 168.197 26.7219 168.197C27.4643 168.197 28.0991 168.404 28.626 168.818C29.1563 169.229 29.5607 169.826 29.8391 170.608C30.1208 171.387 30.2617 172.327 30.2617 173.427C30.2617 174.534 30.1225 175.479 29.8441 176.261C29.5657 177.04 29.163 177.635 28.636 178.046C28.109 178.453 27.471 178.657 26.7219 178.657ZM26.7219 177.563C27.4643 177.563 28.0411 177.205 28.452 176.489C28.863 175.774 29.0685 174.753 29.0685 173.427C29.0685 172.545 28.9741 171.795 28.7851 171.175C28.5995 170.555 28.3311 170.083 27.9797 169.758C27.6317 169.433 27.2125 169.271 26.7219 169.271C25.9861 169.271 25.4111 169.634 24.9968 170.359C24.5825 171.082 24.3753 172.104 24.3753 173.427C24.3753 174.309 24.4681 175.058 24.6537 175.674C24.8393 176.291 25.1062 176.76 25.4542 177.081C25.8055 177.403 26.2281 177.563 26.7219 177.563Z" fill="white"/>
<path d="M58.8497 182.782H60.3213L63.7815 191.233H63.9008L67.361 182.782H68.8326V192.963H67.6792V185.228H67.5798L64.398 192.963H63.2843L60.1025 185.228H60.0031V192.963H58.8497V182.782ZM74.2479 193.123C73.5585 193.123 72.9537 192.958 72.4333 192.63C71.9163 192.302 71.5119 191.843 71.2202 191.253C70.9319 190.663 70.7877 189.974 70.7877 189.185C70.7877 188.39 70.9319 187.695 71.2202 187.102C71.5119 186.509 71.9163 186.048 72.4333 185.72C72.9537 185.392 73.5585 185.228 74.2479 185.228C74.9373 185.228 75.5406 185.392 76.0576 185.72C76.578 186.048 76.9823 186.509 77.2707 187.102C77.5623 187.695 77.7082 188.39 77.7082 189.185C77.7082 189.974 77.5623 190.663 77.2707 191.253C76.9823 191.843 76.578 192.302 76.0576 192.63C75.5406 192.958 74.9373 193.123 74.2479 193.123ZM74.2479 192.069C74.7716 192.069 75.2025 191.934 75.5406 191.666C75.8786 191.397 76.1289 191.044 76.2913 190.607C76.4537 190.169 76.5349 189.695 76.5349 189.185C76.5349 188.675 76.4537 188.199 76.2913 187.758C76.1289 187.317 75.8786 186.961 75.5406 186.689C75.2025 186.418 74.7716 186.282 74.2479 186.282C73.7243 186.282 73.2934 186.418 72.9553 186.689C72.6173 186.961 72.367 187.317 72.2046 187.758C72.0422 188.199 71.961 188.675 71.961 189.185C71.961 189.695 72.0422 190.169 72.2046 190.607C72.367 191.044 72.6173 191.397 72.9553 191.666C73.2934 191.934 73.7243 192.069 74.2479 192.069ZM80.6725 188.37V192.963H79.4992V185.327H80.6327V186.52H80.7321C80.9111 186.132 81.1829 185.821 81.5475 185.586C81.9121 185.347 82.3827 185.228 82.9594 185.228C83.4765 185.228 83.9289 185.334 84.3167 185.546C84.7044 185.755 85.0061 186.073 85.2215 186.5C85.4369 186.925 85.5446 187.462 85.5446 188.111V192.963H84.3713V188.191C84.3713 187.591 84.2156 187.123 83.904 186.789C83.5925 186.451 83.1649 186.282 82.6213 186.282C82.2468 186.282 81.9121 186.363 81.6171 186.525C81.3254 186.688 81.0951 186.925 80.926 187.236C80.757 187.548 80.6725 187.926 80.6725 188.37Z" fill="white"/>
<path d="M138.502 183.875V182.782H146.138V183.875H142.936V192.963H141.703V183.875H138.502ZM151.655 189.841V185.327H152.828V192.963H151.655V191.671H151.576C151.397 192.059 151.118 192.388 150.74 192.66C150.363 192.929 149.885 193.063 149.309 193.063C148.831 193.063 148.407 192.958 148.036 192.75C147.665 192.538 147.373 192.219 147.161 191.795C146.949 191.368 146.843 190.829 146.843 190.179V185.327H148.016V190.1C148.016 190.657 148.172 191.101 148.483 191.432C148.798 191.764 149.199 191.929 149.686 191.929C149.978 191.929 150.275 191.855 150.576 191.706C150.881 191.556 151.136 191.328 151.342 191.02C151.551 190.711 151.655 190.319 151.655 189.841ZM158.179 193.123C157.443 193.123 156.809 192.96 156.275 192.635C155.745 192.307 155.335 191.85 155.047 191.263C154.762 190.673 154.619 189.987 154.619 189.205C154.619 188.423 154.762 187.733 155.047 187.137C155.335 186.537 155.736 186.07 156.25 185.735C156.767 185.397 157.37 185.228 158.06 185.228C158.458 185.228 158.85 185.294 159.238 185.427C159.626 185.559 159.979 185.775 160.297 186.073C160.615 186.368 160.869 186.759 161.058 187.246C161.247 187.733 161.341 188.333 161.341 189.046V189.543H155.455V188.529H160.148C160.148 188.098 160.062 187.713 159.889 187.375C159.72 187.037 159.478 186.77 159.164 186.575C158.852 186.379 158.484 186.282 158.06 186.282C157.593 186.282 157.188 186.398 156.847 186.63C156.509 186.858 156.249 187.157 156.066 187.525C155.884 187.892 155.793 188.287 155.793 188.708V189.384C155.793 189.961 155.892 190.449 156.091 190.851C156.293 191.248 156.573 191.552 156.931 191.76C157.289 191.966 157.705 192.069 158.179 192.069C158.487 192.069 158.766 192.025 159.014 191.939C159.266 191.85 159.483 191.717 159.666 191.542C159.848 191.363 159.989 191.141 160.088 190.875L161.222 191.194C161.102 191.578 160.902 191.916 160.62 192.208C160.338 192.496 159.99 192.721 159.576 192.884C159.162 193.043 158.696 193.123 158.179 193.123Z" fill="white"/>
<path d="M213.367 192.963L210.583 182.782H211.836L213.964 191.074H214.063L216.231 182.782H217.623L219.79 191.074H219.89L222.018 182.782H223.271L220.486 192.963H219.214L216.967 184.85H216.887L214.64 192.963H213.367ZM227.138 193.123C226.403 193.123 225.768 192.96 225.234 192.635C224.704 192.307 224.295 191.85 224.006 191.263C223.721 190.673 223.579 189.987 223.579 189.205C223.579 188.423 223.721 187.733 224.006 187.137C224.295 186.537 224.696 186.07 225.209 185.735C225.726 185.397 226.33 185.228 227.019 185.228C227.417 185.228 227.81 185.294 228.197 185.427C228.585 185.559 228.938 185.775 229.256 186.073C229.575 186.368 229.828 186.759 230.017 187.246C230.206 187.733 230.3 188.333 230.3 189.046V189.543H224.414V188.529H229.107C229.107 188.098 229.021 187.713 228.849 187.375C228.68 187.037 228.438 186.77 228.123 186.575C227.811 186.379 227.443 186.282 227.019 186.282C226.552 186.282 226.147 186.398 225.806 186.63C225.468 186.858 225.208 187.157 225.025 187.525C224.843 187.892 224.752 188.287 224.752 188.708V189.384C224.752 189.961 224.851 190.449 225.05 190.851C225.253 191.248 225.533 191.552 225.891 191.76C226.249 191.966 226.664 192.069 227.138 192.069C227.447 192.069 227.725 192.025 227.974 191.939C228.226 191.85 228.443 191.717 228.625 191.542C228.807 191.363 228.948 191.141 229.048 190.875L230.181 191.194C230.062 191.578 229.861 191.916 229.579 192.208C229.298 192.496 228.95 192.721 228.535 192.884C228.121 193.043 227.655 193.123 227.138 193.123ZM234.969 193.123C234.332 193.123 233.771 192.962 233.283 192.64C232.796 192.315 232.415 191.858 232.14 191.268C231.865 190.675 231.727 189.974 231.727 189.165C231.727 188.363 231.865 187.667 232.14 187.077C232.415 186.487 232.798 186.031 233.288 185.71C233.779 185.388 234.346 185.228 234.989 185.228C235.486 185.228 235.878 185.311 236.167 185.476C236.459 185.639 236.681 185.824 236.833 186.033C236.989 186.239 237.11 186.408 237.196 186.54H237.295V182.782H238.469V192.963H237.335V191.79H237.196C237.11 191.929 236.987 192.105 236.828 192.317C236.669 192.526 236.442 192.713 236.147 192.879C235.852 193.041 235.459 193.123 234.969 193.123ZM235.128 192.069C235.598 192.069 235.996 191.946 236.321 191.701C236.646 191.452 236.893 191.109 237.062 190.672C237.231 190.231 237.315 189.722 237.315 189.145C237.315 188.575 237.232 188.076 237.067 187.649C236.901 187.218 236.656 186.883 236.331 186.645C236.006 186.403 235.605 186.282 235.128 186.282C234.631 186.282 234.216 186.409 233.885 186.664C233.557 186.916 233.31 187.259 233.144 187.694C232.982 188.124 232.9 188.608 232.9 189.145C232.9 189.689 232.983 190.183 233.149 190.627C233.318 191.068 233.567 191.419 233.895 191.681C234.226 191.939 234.637 192.069 235.128 192.069Z" fill="white"/>
<path d="M288.034 183.875V182.782H295.67V183.875H292.468V192.963H291.235V183.875H288.034ZM298.587 188.37V192.963H297.414V182.782H298.587V186.52H298.686C298.865 186.126 299.134 185.813 299.492 185.581C299.853 185.345 300.334 185.228 300.934 185.228C301.454 185.228 301.91 185.332 302.301 185.541C302.692 185.746 302.995 186.063 303.211 186.49C303.429 186.915 303.539 187.455 303.539 188.111V192.963H302.365V188.191C302.365 187.584 302.208 187.115 301.893 186.784C301.582 186.449 301.149 186.282 300.595 186.282C300.211 186.282 299.866 186.363 299.561 186.525C299.26 186.688 299.021 186.925 298.845 187.236C298.673 187.548 298.587 187.926 298.587 188.37ZM310.498 189.841V185.327H311.671V192.963H310.498V191.671H310.418C310.239 192.059 309.961 192.388 309.583 192.66C309.205 192.929 308.728 193.063 308.151 193.063C307.674 193.063 307.25 192.958 306.878 192.75C306.507 192.538 306.215 192.219 306.003 191.795C305.791 191.368 305.685 190.829 305.685 190.179V185.327H306.858V190.1C306.858 190.657 307.014 191.101 307.326 191.432C307.641 191.764 308.042 191.929 308.529 191.929C308.821 191.929 309.117 191.855 309.419 191.706C309.724 191.556 309.979 191.328 310.184 191.02C310.393 190.711 310.498 190.319 310.498 189.841Z" fill="white"/>
<path d="M368.807 192.963V182.782H374.912V183.875H370.04V187.316H374.454V188.409H370.04V192.963H368.807ZM376.782 192.963V185.327H377.916V186.48H377.995C378.135 186.103 378.387 185.796 378.751 185.561C379.116 185.325 379.527 185.208 379.984 185.208C380.07 185.208 380.178 185.209 380.307 185.213C380.437 185.216 380.534 185.221 380.601 185.228V186.421C380.561 186.411 380.47 186.396 380.327 186.376C380.188 186.353 380.04 186.341 379.885 186.341C379.513 186.341 379.182 186.419 378.89 186.575C378.602 186.727 378.373 186.94 378.204 187.211C378.039 187.48 377.956 187.786 377.956 188.131V192.963H376.782ZM381.991 192.963V185.327H383.165V192.963H381.991ZM382.588 184.054C382.359 184.054 382.162 183.976 381.996 183.821C381.834 183.665 381.753 183.478 381.753 183.259C381.753 183.04 381.834 182.853 381.996 182.697C382.162 182.541 382.359 182.463 382.588 182.463C382.817 182.463 383.012 182.541 383.175 182.697C383.34 182.853 383.423 183.04 383.423 183.259C383.423 183.478 383.34 183.665 383.175 183.821C383.012 183.976 382.817 184.054 382.588 184.054Z" fill="white"/>
<path d="M446.015 185.327C445.955 184.823 445.713 184.432 445.289 184.154C444.865 183.875 444.345 183.736 443.728 183.736C443.277 183.736 442.883 183.809 442.545 183.955C442.21 184.101 441.948 184.301 441.759 184.556C441.574 184.812 441.481 185.102 441.481 185.427C441.481 185.698 441.546 185.932 441.675 186.128C441.807 186.32 441.976 186.48 442.182 186.61C442.387 186.736 442.603 186.84 442.828 186.923C443.054 187.003 443.261 187.067 443.45 187.117L444.484 187.395C444.749 187.465 445.044 187.561 445.369 187.684C445.697 187.806 446.01 187.974 446.308 188.186C446.61 188.395 446.859 188.663 447.054 188.991C447.25 189.319 447.347 189.722 447.347 190.199C447.347 190.749 447.203 191.247 446.915 191.691C446.63 192.135 446.212 192.488 445.662 192.75C445.115 193.011 444.451 193.142 443.668 193.142C442.939 193.142 442.308 193.025 441.774 192.789C441.244 192.554 440.826 192.226 440.521 191.805C440.22 191.384 440.049 190.895 440.009 190.338H441.282C441.315 190.723 441.444 191.041 441.67 191.293C441.899 191.542 442.187 191.727 442.535 191.85C442.886 191.969 443.264 192.029 443.668 192.029C444.139 192.029 444.562 191.953 444.936 191.8C445.311 191.644 445.607 191.429 445.826 191.154C446.045 190.875 446.154 190.551 446.154 190.179C446.154 189.841 446.06 189.566 445.871 189.354C445.682 189.142 445.433 188.97 445.125 188.837C444.817 188.704 444.484 188.588 444.126 188.489L442.873 188.131C442.077 187.902 441.448 187.576 440.984 187.152C440.52 186.727 440.288 186.172 440.288 185.486C440.288 184.916 440.442 184.419 440.75 183.995C441.062 183.567 441.479 183.236 442.003 183C442.53 182.762 443.118 182.642 443.768 182.642C444.424 182.642 445.007 182.76 445.518 182.995C446.028 183.227 446.433 183.546 446.731 183.95C447.033 184.354 447.192 184.813 447.208 185.327H446.015ZM451.463 193.142C450.979 193.142 450.54 193.051 450.145 192.869C449.751 192.683 449.438 192.417 449.206 192.069C448.974 191.717 448.858 191.293 448.858 190.796C448.858 190.358 448.944 190.004 449.116 189.732C449.288 189.457 449.519 189.241 449.807 189.086C450.095 188.93 450.414 188.814 450.762 188.738C451.113 188.658 451.466 188.595 451.821 188.549C452.285 188.489 452.661 188.444 452.949 188.414C453.241 188.381 453.453 188.327 453.585 188.25C453.721 188.174 453.789 188.042 453.789 187.853V187.813C453.789 187.322 453.655 186.941 453.387 186.669C453.121 186.398 452.719 186.262 452.179 186.262C451.618 186.262 451.179 186.384 450.861 186.63C450.543 186.875 450.319 187.137 450.19 187.415L449.076 187.017C449.275 186.553 449.54 186.192 449.872 185.934C450.206 185.672 450.571 185.489 450.965 185.387C451.363 185.281 451.754 185.228 452.139 185.228C452.384 185.228 452.666 185.257 452.984 185.317C453.305 185.373 453.615 185.491 453.914 185.67C454.215 185.849 454.465 186.119 454.664 186.48C454.863 186.842 454.963 187.326 454.963 187.932V192.963H453.789V191.929H453.73C453.65 192.095 453.518 192.272 453.332 192.461C453.146 192.65 452.899 192.811 452.591 192.944C452.283 193.076 451.907 193.142 451.463 193.142ZM451.642 192.088C452.106 192.088 452.497 191.997 452.815 191.815C453.136 191.633 453.378 191.397 453.541 191.109C453.706 190.821 453.789 190.517 453.789 190.199V189.125C453.74 189.185 453.63 189.24 453.461 189.289C453.295 189.336 453.103 189.377 452.884 189.414C452.669 189.447 452.459 189.477 452.253 189.503C452.051 189.526 451.887 189.546 451.761 189.563C451.456 189.603 451.171 189.667 450.906 189.757C450.644 189.843 450.432 189.974 450.269 190.15C450.11 190.322 450.031 190.557 450.031 190.855C450.031 191.263 450.182 191.571 450.483 191.78C450.788 191.986 451.174 192.088 451.642 192.088ZM460.425 185.327V186.321H456.468V185.327H460.425ZM457.621 183.498H458.794V190.776C458.794 191.107 458.843 191.356 458.939 191.522C459.038 191.684 459.164 191.793 459.316 191.85C459.472 191.903 459.636 191.929 459.809 191.929C459.938 191.929 460.044 191.923 460.127 191.909C460.21 191.893 460.276 191.88 460.326 191.87L460.564 192.924C460.485 192.953 460.374 192.983 460.231 193.013C460.089 193.046 459.908 193.063 459.689 193.063C459.358 193.063 459.033 192.992 458.715 192.849C458.4 192.707 458.138 192.489 457.929 192.198C457.724 191.906 457.621 191.538 457.621 191.094V183.498Z" fill="white"/>
<path d="M519.397 185.327C519.337 184.823 519.095 184.432 518.671 184.154C518.246 183.875 517.726 183.736 517.11 183.736C516.659 183.736 516.264 183.809 515.926 183.955C515.592 184.101 515.33 184.301 515.141 184.556C514.955 184.812 514.862 185.102 514.862 185.427C514.862 185.698 514.927 185.932 515.056 186.128C515.189 186.32 515.358 186.48 515.563 186.61C515.769 186.736 515.984 186.84 516.21 186.923C516.435 187.003 516.642 187.067 516.831 187.117L517.865 187.395C518.13 187.465 518.425 187.561 518.75 187.684C519.078 187.806 519.392 187.974 519.69 188.186C519.991 188.395 520.24 188.663 520.436 188.991C520.631 189.319 520.729 189.722 520.729 190.199C520.729 190.749 520.585 191.247 520.296 191.691C520.011 192.135 519.594 192.488 519.044 192.75C518.497 193.011 517.832 193.142 517.05 193.142C516.321 193.142 515.689 193.025 515.156 192.789C514.625 192.554 514.208 192.226 513.903 191.805C513.601 191.384 513.431 190.895 513.391 190.338H514.664C514.697 190.723 514.826 191.041 515.051 191.293C515.28 191.542 515.568 191.727 515.916 191.85C516.268 191.969 516.646 192.029 517.05 192.029C517.521 192.029 517.943 191.953 518.318 191.8C518.692 191.644 518.989 191.429 519.208 191.154C519.426 190.875 519.536 190.551 519.536 190.179C519.536 189.841 519.441 189.566 519.252 189.354C519.063 189.142 518.815 188.97 518.507 188.837C518.198 188.704 517.865 188.588 517.507 188.489L516.254 188.131C515.459 187.902 514.829 187.576 514.365 187.152C513.901 186.727 513.669 186.172 513.669 185.486C513.669 184.916 513.823 184.419 514.132 183.995C514.443 183.567 514.861 183.236 515.384 183C515.911 182.762 516.5 182.642 517.149 182.642C517.806 182.642 518.389 182.76 518.899 182.995C519.41 183.227 519.814 183.546 520.112 183.95C520.414 184.354 520.573 184.813 520.59 185.327H519.397ZM527.409 189.841V185.327H528.583V192.963H527.409V191.671H527.33C527.151 192.059 526.873 192.388 526.495 192.66C526.117 192.929 525.64 193.063 525.063 193.063C524.586 193.063 524.161 192.958 523.79 192.75C523.419 192.538 523.127 192.219 522.915 191.795C522.703 191.368 522.597 190.829 522.597 190.179V185.327H523.77V190.1C523.77 190.657 523.926 191.101 524.238 191.432C524.552 191.764 524.953 191.929 525.441 191.929C525.732 191.929 526.029 191.855 526.331 191.706C526.636 191.556 526.891 191.328 527.096 191.02C527.305 190.711 527.409 190.319 527.409 189.841ZM531.905 188.37V192.963H530.732V185.327H531.865V186.52H531.965C532.144 186.132 532.415 185.821 532.78 185.586C533.145 185.347 533.615 185.228 534.192 185.228C534.709 185.228 535.161 185.334 535.549 185.546C535.937 185.755 536.239 186.073 536.454 186.5C536.669 186.925 536.777 187.462 536.777 188.111V192.963H535.604V188.191C535.604 187.591 535.448 187.123 535.137 186.789C534.825 186.451 534.397 186.282 533.854 186.282C533.479 186.282 533.145 186.363 532.85 186.525C532.558 186.688 532.328 186.925 532.159 187.236C531.99 187.548 531.905 187.926 531.905 188.37Z" fill="white"/>
<path d="M52.8647 59.1113H77.3051V179.985H52.8647V59.1113Z" fill="url(#paint0_linear_13_1705)"/>
<path d="M129.445 41.8433H153.885V179.985H129.445V41.8433Z" fill="url(#paint1_linear_13_1705)"/>
<path d="M206.024 76.3784H230.465V179.985H206.024V76.3784Z" fill="url(#paint2_linear_13_1705)"/>
<path d="M282.604 62.5647H307.045V179.985H282.604V62.5647Z" fill="url(#paint3_linear_13_1705)"/>
<path d="M359.184 72.925H383.625V179.985H359.184V72.925Z" fill="url(#paint4_linear_13_1705)"/>
<path d="M435.764 53.9307H460.205V179.985H435.764V53.9307Z" fill="url(#paint5_linear_13_1705)"/>
<path d="M512.344 76.3784H536.784V179.985H512.344V76.3784Z" fill="url(#paint6_linear_13_1705)"/>
<path d="M78.9343 57.3842H103.375V179.985H78.9343V57.3842Z" fill="url(#paint7_linear_13_1705)"/>
<path d="M155.514 60.8374H179.955V179.985H155.514V60.8374Z" fill="url(#paint8_linear_13_1705)"/>
<path d="M232.094 105.734H256.535V179.985H232.094V105.734Z" fill="url(#paint9_linear_13_1705)"/>
<path d="M308.674 79.8317H333.114V179.984H308.674V79.8317Z" fill="url(#paint10_linear_13_1705)"/>
<path d="M385.254 104.007H409.694V179.985H385.254V104.007Z" fill="url(#paint11_linear_13_1705)"/>
<path d="M461.834 57.3842H486.274V179.985H461.834V57.3842Z" fill="url(#paint12_linear_13_1705)"/>
<path d="M538.414 88.4658H562.854V179.985H538.414V88.4658Z" fill="url(#paint13_linear_13_1705)"/>
<path d="M58.3624 50.676L62.2658 42.9544V42.8863H57.7658V41.9488H63.3567V42.9374L59.4704 50.676H58.3624ZM67.6042 50.7954C66.9622 50.7954 66.4153 50.6206 65.9636 50.2712C65.5119 49.9189 65.1667 49.409 64.9281 48.7414C64.6895 48.0709 64.5702 47.2613 64.5702 46.3124C64.5702 45.3692 64.6895 44.5638 64.9281 43.8962C65.1696 43.2258 65.5162 42.7144 65.9679 42.3621C66.4224 42.007 66.9679 41.8294 67.6042 41.8294C68.2406 41.8294 68.7846 42.007 69.2363 42.3621C69.6909 42.7144 70.0375 43.2258 70.2761 43.8962C70.5176 44.5638 70.6383 45.3692 70.6383 46.3124C70.6383 47.2613 70.519 48.0709 70.2804 48.7414C70.0417 49.409 69.6966 49.9189 69.2449 50.2712C68.7932 50.6206 68.2463 50.7954 67.6042 50.7954ZM67.6042 49.8579C68.2406 49.8579 68.7349 49.551 69.0872 48.9374C69.4395 48.3238 69.6156 47.4488 69.6156 46.3124C69.6156 45.5567 69.5346 44.9133 69.3727 44.382C69.2136 43.8508 68.9835 43.4459 68.6824 43.1675C68.3841 42.8891 68.0247 42.7499 67.6042 42.7499C66.9736 42.7499 66.4807 43.061 66.1255 43.6831C65.7704 44.3025 65.5929 45.1789 65.5929 46.3124C65.5929 47.0681 65.6724 47.7101 65.8315 48.2385C65.9906 48.7669 66.2193 49.1689 66.5176 49.4445C66.8187 49.7201 67.1809 49.8579 67.6042 49.8579Z" fill="white"/>
<path d="M137.102 33.5275C136.517 33.5275 135.999 33.4238 135.551 33.2164C135.105 33.0062 134.757 32.7178 134.507 32.3513C134.257 31.982 134.133 31.5616 134.136 31.09C134.133 30.7206 134.205 30.3797 134.353 30.0672C134.501 29.7519 134.703 29.4891 134.958 29.2789C135.217 29.0658 135.505 28.9309 135.823 28.8741V28.8229C135.406 28.715 135.073 28.4806 134.826 28.1198C134.579 27.7562 134.457 27.3428 134.46 26.8797C134.457 26.4366 134.569 26.0402 134.796 25.6908C135.024 25.3414 135.336 25.0658 135.734 24.8641C136.134 24.6624 136.59 24.5616 137.102 24.5616C137.607 24.5616 138.059 24.6624 138.457 24.8641C138.855 25.0658 139.167 25.3414 139.394 25.6908C139.624 26.0402 139.741 26.4366 139.744 26.8797C139.741 27.3428 139.615 27.7562 139.365 28.1198C139.117 28.4806 138.789 28.715 138.38 28.8229V28.8741C138.696 28.9309 138.98 29.0658 139.232 29.2789C139.485 29.4891 139.687 29.7519 139.838 30.0672C139.988 30.3797 140.065 30.7206 140.068 31.09C140.065 31.5616 139.937 31.982 139.684 32.3513C139.434 32.7178 139.086 33.0062 138.64 33.2164C138.197 33.4238 137.684 33.5275 137.102 33.5275ZM137.102 32.59C137.497 32.59 137.838 32.526 138.124 32.3982C138.411 32.2704 138.633 32.09 138.789 31.857C138.946 31.6241 139.025 31.3513 139.028 31.0388C139.025 30.7093 138.94 30.4181 138.772 30.1652C138.605 29.9124 138.376 29.7135 138.086 29.5687C137.799 29.4238 137.471 29.3513 137.102 29.3513C136.73 29.3513 136.397 29.4238 136.105 29.5687C135.815 29.7135 135.586 29.9124 135.419 30.1652C135.254 30.4181 135.173 30.7093 135.176 31.0388C135.173 31.3513 135.248 31.6241 135.401 31.857C135.558 32.09 135.781 32.2704 136.071 32.3982C136.36 32.526 136.704 32.59 137.102 32.59ZM137.102 28.4479C137.414 28.4479 137.691 28.3854 137.933 28.2604C138.177 28.1354 138.369 27.9607 138.508 27.7363C138.647 27.5118 138.718 27.2491 138.721 26.9479C138.718 26.6525 138.649 26.3954 138.512 26.1766C138.376 25.955 138.187 25.7846 137.946 25.6652C137.704 25.5431 137.423 25.482 137.102 25.482C136.775 25.482 136.49 25.5431 136.245 25.6652C136.001 25.7846 135.812 25.955 135.678 26.1766C135.545 26.3954 135.48 26.6525 135.482 26.9479C135.48 27.2491 135.546 27.5118 135.683 27.7363C135.822 27.9607 136.014 28.1354 136.258 28.2604C136.502 28.3854 136.784 28.4479 137.102 28.4479ZM144.547 33.5275C143.905 33.5275 143.358 33.3527 142.907 33.0033C142.455 32.651 142.11 32.1411 141.871 31.4735C141.633 30.803 141.513 29.9934 141.513 29.0445C141.513 28.1013 141.633 27.2959 141.871 26.6283C142.113 25.9579 142.459 25.4465 142.911 25.0942C143.366 24.7391 143.911 24.5616 144.547 24.5616C145.184 24.5616 145.728 24.7391 146.18 25.0942C146.634 25.4465 146.981 25.9579 147.219 26.6283C147.461 27.2959 147.582 28.1013 147.582 29.0445C147.582 29.9934 147.462 30.803 147.224 31.4735C146.985 32.1411 146.64 32.651 146.188 33.0033C145.736 33.3527 145.189 33.5275 144.547 33.5275ZM144.547 32.59C145.184 32.59 145.678 32.2831 146.03 31.6695C146.383 31.0559 146.559 30.1809 146.559 29.0445C146.559 28.2888 146.478 27.6454 146.316 27.1141C146.157 26.5829 145.927 26.178 145.626 25.8996C145.327 25.6212 144.968 25.482 144.547 25.482C143.917 25.482 143.424 25.7931 143.069 26.4152C142.714 27.0346 142.536 27.911 142.536 29.0445C142.536 29.8002 142.616 30.4422 142.775 30.9706C142.934 31.4991 143.162 31.901 143.461 32.1766C143.762 32.4522 144.124 32.59 144.547 32.59Z" fill="white"/>
<path d="M213.737 68.0625C213.379 68.0568 213.021 67.9886 212.663 67.8579C212.305 67.7272 211.978 67.5071 211.683 67.1974C211.387 66.8849 211.15 66.463 210.971 65.9318C210.792 65.3977 210.703 64.7272 210.703 63.9204C210.703 63.1477 210.775 62.463 210.92 61.8664C211.065 61.267 211.275 60.7627 211.551 60.3537C211.826 59.9417 212.159 59.6292 212.548 59.4162C212.94 59.2031 213.382 59.0966 213.873 59.0966C214.362 59.0966 214.796 59.1946 215.177 59.3906C215.561 59.5838 215.873 59.8537 216.115 60.2002C216.356 60.5468 216.512 60.946 216.583 61.3977H215.544C215.447 61.0056 215.26 60.6804 214.981 60.4218C214.703 60.1633 214.333 60.0341 213.873 60.0341C213.197 60.0341 212.664 60.3281 212.275 60.9162C211.889 61.5042 211.694 62.3295 211.691 63.392H211.76C211.919 63.1505 212.108 62.9446 212.326 62.7741C212.548 62.6008 212.792 62.4673 213.059 62.3735C213.326 62.2798 213.609 62.2329 213.907 62.2329C214.407 62.2329 214.865 62.3579 215.279 62.6079C215.694 62.8551 216.027 63.1974 216.277 63.6349C216.527 64.0696 216.652 64.5681 216.652 65.1306C216.652 65.6704 216.531 66.1647 216.289 66.6136C216.048 67.0596 215.708 67.4147 215.271 67.6789C214.836 67.9403 214.325 68.0681 213.737 68.0625ZM213.737 67.125C214.095 67.125 214.416 67.0355 214.7 66.8565C214.987 66.6775 215.213 66.4375 215.377 66.1363C215.545 65.8352 215.629 65.5 215.629 65.1306C215.629 64.7699 215.548 64.4417 215.386 64.1463C215.227 63.848 215.007 63.6108 214.725 63.4346C214.447 63.2585 214.129 63.1704 213.771 63.1704C213.501 63.1704 213.25 63.2244 213.017 63.3324C212.784 63.4375 212.579 63.5824 212.403 63.767C212.23 63.9517 212.093 64.1633 211.994 64.402C211.894 64.6377 211.845 64.8863 211.845 65.1477C211.845 65.4943 211.926 65.8181 212.088 66.1193C212.252 66.4204 212.477 66.6633 212.761 66.848C213.048 67.0326 213.373 67.125 213.737 67.125ZM221.174 68.0625C220.532 68.0625 219.985 67.8877 219.533 67.5383C219.082 67.186 218.736 66.6761 218.498 66.0085C218.259 65.338 218.14 64.5284 218.14 63.5795C218.14 62.6363 218.259 61.8309 218.498 61.1633C218.739 60.4929 219.086 59.9815 219.538 59.6292C219.992 59.2741 220.538 59.0966 221.174 59.0966C221.81 59.0966 222.354 59.2741 222.806 59.6292C223.261 59.9815 223.607 60.4929 223.846 61.1633C224.087 61.8309 224.208 62.6363 224.208 63.5795C224.208 64.5284 224.089 65.338 223.85 66.0085C223.611 66.6761 223.266 67.186 222.815 67.5383C222.363 67.8877 221.816 68.0625 221.174 68.0625ZM221.174 67.125C221.81 67.125 222.305 66.8181 222.657 66.2045C223.009 65.5909 223.185 64.7159 223.185 63.5795C223.185 62.8238 223.104 62.1804 222.942 61.6491C222.783 61.1179 222.553 60.713 222.252 60.4346C221.954 60.1562 221.594 60.017 221.174 60.017C220.543 60.017 220.05 60.3281 219.695 60.9502C219.34 61.5696 219.163 62.446 219.163 63.5795C219.163 64.3352 219.242 64.9772 219.401 65.5056C219.56 66.0341 219.789 66.436 220.087 66.7116C220.388 66.9872 220.751 67.125 221.174 67.125Z" fill="white"/>
<path d="M290.37 54.2488C290.012 54.2431 289.654 54.1749 289.296 54.0442C288.938 53.9135 288.611 53.6934 288.316 53.3837C288.02 53.0712 287.783 52.6493 287.604 52.1181C287.425 51.584 287.336 50.9135 287.336 50.1067C287.336 49.334 287.408 48.6493 287.553 48.0528C287.698 47.4533 287.908 46.9491 288.184 46.54C288.459 46.128 288.792 45.8155 289.181 45.6025C289.573 45.3894 290.015 45.2829 290.506 45.2829C290.995 45.2829 291.429 45.3809 291.81 45.5769C292.194 45.7701 292.506 46.04 292.748 46.3866C292.989 46.7331 293.145 47.1323 293.216 47.584H292.177C292.08 47.192 291.892 46.8667 291.614 46.6081C291.336 46.3496 290.966 46.2204 290.506 46.2204C289.83 46.2204 289.297 46.5144 288.908 47.1025C288.522 47.6905 288.327 48.5158 288.324 49.5783H288.392C288.552 49.3368 288.74 49.1309 288.959 48.9604C289.181 48.7871 289.425 48.6536 289.692 48.5599C289.959 48.4661 290.242 48.4192 290.54 48.4192C291.04 48.4192 291.498 48.5442 291.912 48.7942C292.327 49.0414 292.66 49.3837 292.91 49.8212C293.16 50.2559 293.285 50.7545 293.285 51.317C293.285 51.8567 293.164 52.351 292.922 52.7999C292.681 53.2459 292.341 53.601 291.904 53.8653C291.469 54.1266 290.958 54.2545 290.37 54.2488ZM290.37 53.3113C290.728 53.3113 291.049 53.2218 291.333 53.0428C291.62 52.8638 291.846 52.6238 292.01 52.3226C292.178 52.0215 292.262 51.6863 292.262 51.317C292.262 50.9562 292.181 50.628 292.019 50.3326C291.86 50.0343 291.64 49.7971 291.358 49.6209C291.08 49.4448 290.762 49.3567 290.404 49.3567C290.134 49.3567 289.883 49.4107 289.65 49.5187C289.417 49.6238 289.212 49.7687 289.036 49.9533C288.863 50.138 288.726 50.3496 288.627 50.5883C288.527 50.8241 288.478 51.0726 288.478 51.334C288.478 51.6806 288.559 52.0045 288.721 52.3056C288.885 52.6067 289.11 52.8496 289.394 53.0343C289.681 53.2189 290.006 53.3113 290.37 53.3113ZM297.756 54.2488C297.171 54.2488 296.653 54.1451 296.205 53.9377C295.759 53.7275 295.411 53.4391 295.161 53.0726C294.911 52.7033 294.787 52.2829 294.79 51.8113C294.787 51.442 294.859 51.101 295.007 50.7885C295.155 50.4732 295.357 50.2104 295.612 50.0002C295.871 49.7871 296.159 49.6522 296.477 49.5954V49.5442C296.06 49.4363 295.727 49.2019 295.48 48.8411C295.233 48.4775 295.111 48.0641 295.114 47.601C295.111 47.1579 295.223 46.7616 295.45 46.4121C295.678 46.0627 295.99 45.7871 296.388 45.5854C296.788 45.3837 297.244 45.2829 297.756 45.2829C298.261 45.2829 298.713 45.3837 299.111 45.5854C299.509 45.7871 299.821 46.0627 300.048 46.4121C300.278 46.7616 300.395 47.1579 300.398 47.601C300.395 48.0641 300.269 48.4775 300.019 48.8411C299.771 49.2019 299.443 49.4363 299.034 49.5442V49.5954C299.349 49.6522 299.634 49.7871 299.886 50.0002C300.139 50.2104 300.341 50.4732 300.492 50.7885C300.642 51.101 300.719 51.442 300.722 51.8113C300.719 52.2829 300.591 52.7033 300.338 53.0726C300.088 53.4391 299.74 53.7275 299.294 53.9377C298.851 54.1451 298.338 54.2488 297.756 54.2488ZM297.756 53.3113C298.151 53.3113 298.492 53.2474 298.778 53.1195C299.065 52.9917 299.287 52.8113 299.443 52.5783C299.599 52.3454 299.679 52.0726 299.682 51.7601C299.679 51.4306 299.594 51.1394 299.426 50.8866C299.259 50.6337 299.03 50.4349 298.74 50.29C298.453 50.1451 298.125 50.0726 297.756 50.0726C297.384 50.0726 297.051 50.1451 296.759 50.29C296.469 50.4349 296.24 50.6337 296.073 50.8866C295.908 51.1394 295.827 51.4306 295.83 51.7601C295.827 52.0726 295.902 52.3454 296.055 52.5783C296.212 52.8113 296.435 52.9917 296.724 53.1195C297.014 53.2474 297.358 53.3113 297.756 53.3113ZM297.756 49.1692C298.068 49.1692 298.345 49.1067 298.587 48.9817C298.831 48.8567 299.023 48.682 299.162 48.4576C299.301 48.2331 299.372 47.9704 299.375 47.6692C299.372 47.3738 299.303 47.1167 299.166 46.8979C299.03 46.6763 298.841 46.5059 298.599 46.3866C298.358 46.2644 298.077 46.2033 297.756 46.2033C297.429 46.2033 297.144 46.2644 296.899 46.3866C296.655 46.5059 296.466 46.6763 296.332 46.8979C296.199 47.1167 296.134 47.3738 296.136 47.6692C296.134 47.9704 296.2 48.2331 296.337 48.4576C296.476 48.682 296.668 48.8567 296.912 48.9817C297.156 49.1067 297.438 49.1692 297.756 49.1692Z" fill="white"/>
<path d="M367.014 64.609C366.656 64.6034 366.298 64.5352 365.94 64.4045C365.582 64.2738 365.255 64.0537 364.96 63.744C364.665 63.4315 364.427 63.0096 364.248 62.4784C364.069 61.9443 363.98 61.2738 363.98 60.467C363.98 59.6943 364.052 59.0096 364.197 58.413C364.342 57.8136 364.552 57.3093 364.828 56.9002C365.104 56.4883 365.436 56.1758 365.825 55.9627C366.217 55.7497 366.659 55.6431 367.15 55.6431C367.639 55.6431 368.074 55.7412 368.454 55.9372C368.838 56.1304 369.15 56.4002 369.392 56.7468C369.633 57.0934 369.79 57.4926 369.861 57.9443H368.821C368.724 57.5522 368.537 57.2269 368.258 56.9684C367.98 56.7099 367.611 56.5806 367.15 56.5806C366.474 56.5806 365.942 56.8747 365.552 57.4627C365.166 58.0508 364.971 58.8761 364.969 59.9386H365.037C365.196 59.6971 365.385 59.4912 365.604 59.3207C365.825 59.1474 366.069 59.0139 366.336 58.9201C366.604 58.8264 366.886 58.7795 367.184 58.7795C367.684 58.7795 368.142 58.9045 368.557 59.1545C368.971 59.4017 369.304 59.744 369.554 60.1815C369.804 60.6162 369.929 61.1147 369.929 61.6772C369.929 62.217 369.808 62.7113 369.567 63.1602C369.325 63.6062 368.986 63.9613 368.548 64.2255C368.113 64.4869 367.602 64.6147 367.014 64.609ZM367.014 63.6715C367.372 63.6715 367.693 63.5821 367.977 63.4031C368.264 63.2241 368.49 62.984 368.655 62.6829C368.822 62.3818 368.906 62.0465 368.906 61.6772C368.906 61.3164 368.825 60.9883 368.663 60.6929C368.504 60.3946 368.284 60.1573 368.003 59.9812C367.724 59.8051 367.406 59.717 367.048 59.717C366.778 59.717 366.527 59.771 366.294 59.8789C366.061 59.984 365.856 60.1289 365.68 60.3136C365.507 60.4983 365.371 60.7099 365.271 60.9485C365.172 61.1843 365.122 61.4329 365.122 61.6943C365.122 62.0409 365.203 62.3647 365.365 62.6659C365.53 62.967 365.754 63.2099 366.038 63.3946C366.325 63.5792 366.65 63.6715 367.014 63.6715ZM371.605 64.4897V63.7227L374.485 60.5693C374.823 60.2 375.102 59.8789 375.32 59.6062C375.539 59.3306 375.701 59.0721 375.806 58.8306C375.914 58.5863 375.968 58.3306 375.968 58.0636C375.968 57.7568 375.894 57.4912 375.747 57.2667C375.602 57.0423 375.403 56.869 375.15 56.7468C374.897 56.6247 374.613 56.5636 374.298 56.5636C373.963 56.5636 373.67 56.6332 373.42 56.7724C373.173 56.9088 372.981 57.1005 372.845 57.3477C372.711 57.5948 372.644 57.8846 372.644 58.217H371.639C371.639 57.7056 371.757 57.2568 371.992 56.8704C372.228 56.484 372.549 56.1829 372.955 55.967C373.365 55.7511 373.823 55.6431 374.332 55.6431C374.843 55.6431 375.296 55.7511 375.691 55.967C376.086 56.1829 376.396 56.4741 376.62 56.8406C376.845 57.2071 376.957 57.6147 376.957 58.0636C376.957 58.3846 376.899 58.6985 376.782 59.0054C376.668 59.3093 376.47 59.6488 376.186 60.0238C375.904 60.396 375.514 60.8505 375.014 61.3875L373.053 63.484V63.5522H377.11V64.4897H371.605Z" fill="white"/>
<path d="M441.197 45.4954L445.101 37.7738V37.7056H440.601V36.7681H446.192V37.7568L442.305 45.4954H441.197ZM450.53 45.6147C449.967 45.6147 449.466 45.5181 449.025 45.325C448.588 45.1318 448.24 44.8633 447.981 44.5196C447.726 44.173 447.587 43.771 447.564 43.3136H448.638C448.66 43.5948 448.757 43.8377 448.927 44.0423C449.098 44.244 449.321 44.4002 449.597 44.511C449.872 44.6218 450.177 44.6772 450.513 44.6772C450.888 44.6772 451.22 44.6119 451.51 44.4812C451.8 44.3505 452.027 44.1687 452.192 43.9357C452.356 43.7028 452.439 43.4329 452.439 43.1261C452.439 42.8051 452.359 42.5224 452.2 42.2781C452.041 42.0309 451.808 41.8377 451.501 41.6985C451.195 41.5593 450.82 41.4897 450.376 41.4897H449.677V40.5522H450.376C450.723 40.5522 451.027 40.4897 451.288 40.3647C451.552 40.2397 451.758 40.0636 451.906 39.8363C452.057 39.609 452.132 39.342 452.132 39.0352C452.132 38.7397 452.067 38.4826 451.936 38.2639C451.805 38.0451 451.621 37.8747 451.382 37.7525C451.146 37.6304 450.868 37.5693 450.547 37.5693C450.246 37.5693 449.962 37.6247 449.695 37.7355C449.43 37.8434 449.214 38.0011 449.047 38.2085C448.879 38.413 448.788 38.6602 448.774 38.95H447.751C447.768 38.4926 447.906 38.092 448.165 37.7482C448.423 37.4017 448.761 37.1318 449.179 36.9386C449.599 36.7454 450.061 36.6488 450.564 36.6488C451.104 36.6488 451.567 36.7582 451.953 36.9769C452.339 37.1928 452.636 37.4784 452.844 37.8335C453.051 38.1886 453.155 38.5721 453.155 38.984C453.155 39.4755 453.025 39.8946 452.767 40.2411C452.511 40.5877 452.163 40.8278 451.723 40.9613V41.0295C452.274 41.1204 452.704 41.3548 453.014 41.7326C453.324 42.1076 453.479 42.5721 453.479 43.1261C453.479 43.6005 453.349 44.0267 453.091 44.4045C452.835 44.7795 452.486 45.075 452.043 45.2909C451.599 45.5068 451.095 45.6147 450.53 45.6147Z" fill="white"/>
<path d="M520.057 68.0625C519.699 68.0568 519.341 67.9886 518.983 67.8579C518.625 67.7272 518.298 67.5071 518.003 67.1974C517.707 66.8849 517.47 66.463 517.291 65.9318C517.112 65.3977 517.022 64.7272 517.022 63.9204C517.022 63.1477 517.095 62.463 517.24 61.8664C517.385 61.267 517.595 60.7627 517.87 60.3537C518.146 59.9417 518.478 59.6292 518.868 59.4162C519.26 59.2031 519.701 59.0966 520.193 59.0966C520.682 59.0966 521.116 59.1946 521.497 59.3906C521.88 59.5838 522.193 59.8537 522.434 60.2002C522.676 60.5468 522.832 60.946 522.903 61.3977H521.863C521.767 61.0056 521.579 60.6804 521.301 60.4218C521.022 60.1633 520.653 60.0341 520.193 60.0341C519.517 60.0341 518.984 60.3281 518.595 60.9162C518.208 61.5042 518.014 62.3295 518.011 63.392H518.079C518.238 63.1505 518.427 62.9446 518.646 62.7741C518.868 62.6008 519.112 62.4673 519.379 62.3735C519.646 62.2798 519.929 62.2329 520.227 62.2329C520.727 62.2329 521.184 62.3579 521.599 62.6079C522.014 62.8551 522.346 63.1974 522.596 63.6349C522.846 64.0696 522.971 64.5681 522.971 65.1306C522.971 65.6704 522.851 66.1647 522.609 66.6136C522.368 67.0596 522.028 67.4147 521.591 67.6789C521.156 67.9403 520.645 68.0681 520.057 68.0625ZM520.057 67.125C520.414 67.125 520.735 67.0355 521.02 66.8565C521.307 66.6775 521.532 66.4375 521.697 66.1363C521.865 65.8352 521.949 65.5 521.949 65.1306C521.949 64.7699 521.868 64.4417 521.706 64.1463C521.547 63.848 521.326 63.6108 521.045 63.4346C520.767 63.2585 520.449 63.1704 520.091 63.1704C519.821 63.1704 519.569 63.2244 519.336 63.3324C519.103 63.4375 518.899 63.5824 518.723 63.767C518.549 63.9517 518.413 64.1633 518.314 64.402C518.214 64.6377 518.164 64.8863 518.164 65.1477C518.164 65.4943 518.245 65.8181 518.407 66.1193C518.572 66.4204 518.797 66.6633 519.081 66.848C519.368 67.0326 519.693 67.125 520.057 67.125ZM527.494 68.0625C526.852 68.0625 526.305 67.8877 525.853 67.5383C525.401 67.186 525.056 66.6761 524.818 66.0085C524.579 65.338 524.46 64.5284 524.46 63.5795C524.46 62.6363 524.579 61.8309 524.818 61.1633C525.059 60.4929 525.406 59.9815 525.857 59.6292C526.312 59.2741 526.857 59.0966 527.494 59.0966C528.13 59.0966 528.674 59.2741 529.126 59.6292C529.58 59.9815 529.927 60.4929 530.166 61.1633C530.407 61.8309 530.528 62.6363 530.528 63.5795C530.528 64.5284 530.408 65.338 530.17 66.0085C529.931 66.6761 529.586 67.186 529.134 67.5383C528.683 67.8877 528.136 68.0625 527.494 68.0625ZM527.494 67.125C528.13 67.125 528.624 66.8181 528.977 66.2045C529.329 65.5909 529.505 64.7159 529.505 63.5795C529.505 62.8238 529.424 62.1804 529.262 61.6491C529.103 61.1179 528.873 60.713 528.572 60.4346C528.273 60.1562 527.914 60.017 527.494 60.017C526.863 60.017 526.37 60.3281 526.015 60.9502C525.66 61.5696 525.482 62.446 525.482 63.5795C525.482 64.3352 525.562 64.9772 525.721 65.5056C525.88 66.0341 526.109 66.436 526.407 66.7116C526.708 66.9872 527.07 67.125 527.494 67.125Z" fill="white"/>
<path d="M84.7556 40.4396V41.049L81.2224 48.9709H80.0798L83.6071 41.3302H78.9899V40.4396H84.7556ZM89.5544 40.3927V48.9709H88.4704V41.7462L86.2849 42.5431V41.5646L89.3845 40.3927H89.5544Z" fill="white"/>
<path d="M161.093 43.881H161.187V44.8009H161.093C160.519 44.8009 160.039 44.8947 159.652 45.0822C159.265 45.2658 158.959 45.5138 158.732 45.8263C158.505 46.1349 158.341 46.4826 158.24 46.8693C158.142 47.256 158.093 47.6486 158.093 48.047V49.3009C158.093 49.6798 158.138 50.0158 158.228 50.3087C158.318 50.5978 158.441 50.8419 158.597 51.0412C158.753 51.2404 158.929 51.3908 159.125 51.4923C159.324 51.5939 159.531 51.6447 159.746 51.6447C159.996 51.6447 160.218 51.5978 160.414 51.5041C160.609 51.4064 160.773 51.2716 160.906 51.0998C161.043 50.924 161.146 50.7169 161.216 50.4787C161.287 50.2404 161.322 49.9787 161.322 49.6935C161.322 49.4396 161.291 49.1955 161.228 48.9611C161.166 48.7228 161.07 48.5119 160.941 48.3283C160.812 48.1408 160.65 47.9943 160.455 47.8888C160.263 47.7794 160.035 47.7248 159.769 47.7248C159.468 47.7248 159.187 47.799 158.925 47.9474C158.668 48.0919 158.455 48.2834 158.287 48.5216C158.123 48.756 158.029 49.0119 158.005 49.2892L157.431 49.2834C157.486 48.8459 157.587 48.4728 157.736 48.1642C157.888 47.8517 158.076 47.5978 158.298 47.4025C158.525 47.2033 158.777 47.0587 159.054 46.9689C159.336 46.8752 159.632 46.8283 159.945 46.8283C160.371 46.8283 160.738 46.9084 161.046 47.0685C161.355 47.2287 161.609 47.4435 161.808 47.713C162.007 47.9787 162.154 48.2794 162.248 48.6154C162.345 48.9474 162.394 49.2892 162.394 49.6408C162.394 50.0431 162.337 50.4201 162.224 50.7716C162.111 51.1232 161.941 51.4318 161.714 51.6974C161.492 51.963 161.216 52.1701 160.888 52.3185C160.56 52.4669 160.179 52.5412 159.746 52.5412C159.285 52.5412 158.882 52.4474 158.539 52.2599C158.195 52.0685 157.91 51.8146 157.683 51.4982C157.457 51.1818 157.287 50.8302 157.173 50.4435C157.06 50.0568 157.003 49.6642 157.003 49.2658V48.756C157.003 48.1544 157.064 47.5646 157.185 46.9865C157.306 46.4084 157.515 45.8849 157.812 45.4162C158.113 44.9474 158.529 44.5744 159.06 44.297C159.591 44.0197 160.269 43.881 161.093 43.881ZM164.761 51.5158H164.873C165.498 51.5158 166.005 51.4279 166.396 51.2521C166.787 51.0763 167.087 50.84 167.298 50.5431C167.509 50.2462 167.654 49.9123 167.732 49.5412C167.81 49.1662 167.849 48.7814 167.849 48.3869V47.0802C167.849 46.6935 167.804 46.3498 167.714 46.049C167.628 45.7482 167.507 45.4962 167.351 45.2931C167.199 45.09 167.025 44.9357 166.83 44.8302C166.634 44.7248 166.427 44.672 166.209 44.672C165.959 44.672 165.734 44.7228 165.535 44.8244C165.339 44.922 165.173 45.0607 165.037 45.2404C164.904 45.4201 164.802 45.631 164.732 45.8732C164.662 46.1154 164.627 46.3791 164.627 46.6642C164.627 46.9181 164.658 47.1642 164.72 47.4025C164.783 47.6408 164.878 47.8556 165.007 48.047C165.136 48.2384 165.296 48.3908 165.488 48.5041C165.683 48.6134 165.912 48.6681 166.173 48.6681C166.416 48.6681 166.642 48.6212 166.853 48.5275C167.068 48.4298 167.257 48.299 167.421 48.1349C167.589 47.9669 167.722 47.7775 167.82 47.5666C167.921 47.3556 167.98 47.1349 167.996 46.9044H168.511C168.511 47.2287 168.447 47.549 168.318 47.8654C168.193 48.1779 168.017 48.463 167.791 48.7209C167.564 48.9787 167.298 49.1857 166.994 49.3419C166.689 49.4943 166.357 49.5705 165.998 49.5705C165.576 49.5705 165.211 49.4884 164.902 49.3244C164.593 49.1603 164.339 48.9416 164.14 48.6681C163.945 48.3947 163.798 48.09 163.701 47.7541C163.607 47.4142 163.56 47.0705 163.56 46.7228C163.56 46.3166 163.617 45.9357 163.73 45.5802C163.843 45.2248 164.011 44.9123 164.234 44.6427C164.457 44.3693 164.732 44.1564 165.06 44.0041C165.392 43.8517 165.775 43.7755 166.209 43.7755C166.697 43.7755 167.113 43.8732 167.457 44.0685C167.8 44.2638 168.08 44.5255 168.295 44.8537C168.513 45.1818 168.673 45.5509 168.775 45.9611C168.877 46.3712 168.927 46.7931 168.927 47.2267V47.6193C168.927 48.0607 168.898 48.5099 168.839 48.9669C168.785 49.4201 168.677 49.8537 168.517 50.2677C168.361 50.6818 168.132 51.0529 167.832 51.381C167.531 51.7052 167.138 51.963 166.654 52.1544C166.173 52.3419 165.58 52.4357 164.873 52.4357H164.761V51.5158Z" fill="white"/>
<path d="M241.216 94.4494V95.34H235.052V94.7013L238.873 88.7892H239.757L238.808 90.5002L236.283 94.4494H241.216ZM240.027 88.7892V97.3205H238.943V88.7892H240.027ZM243.783 92.5216H244.556C244.935 92.5216 245.248 92.4591 245.494 92.3341C245.744 92.2052 245.929 92.0314 246.05 91.8127C246.175 91.59 246.238 91.34 246.238 91.0627C246.238 90.7345 246.183 90.4591 246.074 90.2365C245.964 90.0138 245.8 89.8459 245.582 89.7326C245.363 89.6193 245.086 89.5627 244.75 89.5627C244.445 89.5627 244.175 89.6232 243.941 89.7443C243.711 89.8615 243.529 90.0294 243.396 90.2482C243.267 90.4669 243.203 90.7248 243.203 91.0216H242.119C242.119 90.588 242.228 90.1935 242.447 89.838C242.666 89.4826 242.972 89.1994 243.367 88.9884C243.765 88.7775 244.226 88.672 244.75 88.672C245.265 88.672 245.716 88.7638 246.103 88.9474C246.49 89.1271 246.791 89.3966 247.006 89.756C247.22 90.1115 247.328 90.5548 247.328 91.0861C247.328 91.3009 247.277 91.5314 247.175 91.7775C247.078 92.0197 246.923 92.2462 246.713 92.4572C246.506 92.6681 246.236 92.8419 245.904 92.9787C245.572 93.1115 245.173 93.1779 244.709 93.1779H243.783V92.5216ZM243.783 93.4123V92.7619H244.709C245.252 92.7619 245.701 92.8263 246.056 92.9552C246.412 93.0841 246.691 93.256 246.894 93.4709C247.101 93.6857 247.246 93.922 247.328 94.1798C247.414 94.4337 247.457 94.6877 247.457 94.9416C247.457 95.34 247.388 95.6935 247.252 96.0021C247.119 96.3107 246.929 96.5724 246.683 96.7873C246.441 97.0021 246.156 97.1642 245.828 97.2736C245.5 97.383 245.142 97.4377 244.756 97.4377C244.384 97.4377 244.035 97.3849 243.707 97.2794C243.382 97.174 243.095 97.0216 242.845 96.8224C242.595 96.6193 242.4 96.3712 242.259 96.0783C242.119 95.7814 242.048 95.4435 242.048 95.0646H243.132C243.132 95.3615 243.197 95.6212 243.326 95.8439C243.459 96.0666 243.646 96.2404 243.888 96.3654C244.134 96.4865 244.423 96.547 244.756 96.547C245.088 96.547 245.373 96.4904 245.611 96.3771C245.853 96.2599 246.039 96.0841 246.168 95.8498C246.3 95.6154 246.367 95.3205 246.367 94.965C246.367 94.6095 246.293 94.3185 246.144 94.0919C245.996 93.8615 245.785 93.6916 245.511 93.5822C245.242 93.4689 244.923 93.4123 244.556 93.4123H243.783Z" fill="white"/>
<path d="M313.686 67.3581L312.819 67.1354L313.247 62.8874H317.624V63.8893H314.167L313.909 66.2096C314.065 66.1198 314.262 66.0358 314.501 65.9577C314.743 65.8795 315.02 65.8405 315.333 65.8405C315.727 65.8405 316.081 65.9088 316.393 66.0456C316.706 66.1784 316.971 66.3698 317.19 66.6198C317.413 66.8698 317.583 67.1706 317.7 67.5221C317.817 67.8737 317.876 68.2663 317.876 68.6999C317.876 69.11 317.819 69.487 317.706 69.8307C317.596 70.1745 317.43 70.4753 317.208 70.7331C316.985 70.987 316.704 71.1842 316.364 71.3249C316.028 71.4655 315.632 71.5358 315.175 71.5358C314.831 71.5358 314.505 71.4889 314.196 71.3952C313.891 71.2975 313.618 71.151 313.376 70.9557C313.137 70.7565 312.942 70.5104 312.79 70.2174C312.641 69.9206 312.548 69.5729 312.509 69.1745H313.54C313.587 69.4948 313.68 69.7643 313.821 69.9831C313.962 70.2018 314.145 70.3678 314.372 70.4811C314.602 70.5905 314.87 70.6452 315.175 70.6452C315.432 70.6452 315.661 70.6003 315.86 70.5104C316.059 70.4206 316.227 70.2917 316.364 70.1237C316.501 69.9557 316.604 69.7526 316.675 69.5143C316.749 69.276 316.786 69.0085 316.786 68.7116C316.786 68.442 316.749 68.192 316.675 67.9616C316.6 67.7311 316.489 67.5299 316.341 67.3581C316.196 67.1862 316.018 67.0534 315.807 66.9596C315.596 66.862 315.354 66.8131 315.081 66.8131C314.717 66.8131 314.442 66.862 314.255 66.9596C314.071 67.0573 313.882 67.1901 313.686 67.3581ZM324.444 69.11C324.444 69.6295 324.323 70.071 324.081 70.4342C323.842 70.7936 323.518 71.067 323.108 71.2545C322.702 71.442 322.243 71.5358 321.731 71.5358C321.219 71.5358 320.759 71.442 320.348 71.2545C319.938 71.067 319.614 70.7936 319.376 70.4342C319.137 70.071 319.018 69.6295 319.018 69.11C319.018 68.7702 319.083 68.4596 319.212 68.1784C319.344 67.8932 319.53 67.6452 319.768 67.4342C320.01 67.2233 320.296 67.0612 320.624 66.9479C320.956 66.8307 321.321 66.7721 321.719 66.7721C322.243 66.7721 322.71 66.8737 323.12 67.0768C323.53 67.276 323.852 67.5514 324.087 67.903C324.325 68.2545 324.444 68.6569 324.444 69.11ZM323.354 69.0866C323.354 68.7702 323.286 68.4909 323.149 68.2487C323.012 68.0026 322.821 67.8112 322.575 67.6745C322.329 67.5378 322.044 67.4694 321.719 67.4694C321.387 67.4694 321.1 67.5378 320.858 67.6745C320.62 67.8112 320.434 68.0026 320.301 68.2487C320.169 68.4909 320.102 68.7702 320.102 69.0866C320.102 69.4147 320.167 69.696 320.296 69.9303C320.428 70.1608 320.616 70.3385 320.858 70.4635C321.104 70.5846 321.395 70.6452 321.731 70.6452C322.067 70.6452 322.356 70.5846 322.598 70.4635C322.841 70.3385 323.026 70.1608 323.155 69.9303C323.288 69.696 323.354 69.4147 323.354 69.0866ZM324.245 65.1081C324.245 65.5221 324.135 65.8952 323.917 66.2272C323.698 66.5592 323.399 66.821 323.02 67.0124C322.641 67.2038 322.212 67.2995 321.731 67.2995C321.243 67.2995 320.807 67.2038 320.425 67.0124C320.046 66.821 319.749 66.5592 319.534 66.2272C319.319 65.8952 319.212 65.5221 319.212 65.1081C319.212 64.612 319.319 64.1901 319.534 63.8424C319.753 63.4948 320.051 63.2292 320.43 63.0456C320.809 62.862 321.241 62.7702 321.725 62.7702C322.214 62.7702 322.647 62.862 323.026 63.0456C323.405 63.2292 323.702 63.4948 323.917 63.8424C324.135 64.1901 324.245 64.612 324.245 65.1081ZM323.161 65.1256C323.161 64.8405 323.1 64.5885 322.979 64.3698C322.858 64.151 322.69 63.9792 322.475 63.8542C322.26 63.7253 322.01 63.6608 321.725 63.6608C321.44 63.6608 321.19 63.7213 320.975 63.8424C320.764 63.9596 320.598 64.1276 320.477 64.3463C320.36 64.5651 320.301 64.8249 320.301 65.1256C320.301 65.4186 320.36 65.6745 320.477 65.8932C320.598 66.112 320.766 66.2819 320.981 66.403C321.196 66.5241 321.446 66.5846 321.731 66.5846C322.016 66.5846 322.264 66.5241 322.475 66.403C322.69 66.2819 322.858 66.112 322.979 65.8932C323.1 65.6745 323.161 65.4186 323.161 65.1256Z" fill="white"/>
<path d="M396.598 92.7223V93.6129H390.434V92.9743L394.255 87.0622H395.139L394.19 88.7731L391.665 92.7223H396.598ZM395.409 87.0622V95.5934H394.325V87.0622H395.409ZM403.348 92.7223V93.6129H397.184V92.9743L401.005 87.0622H401.889L400.94 88.7731L398.415 92.7223H403.348ZM402.159 87.0622V95.5934H401.075V87.0622H402.159Z" fill="white"/>
<path d="M473.211 40.4396V41.049L469.677 48.9709H468.535L472.062 41.3302H467.445V40.4396H473.211ZM478.009 40.3927V48.9709H476.925V41.7462L474.74 42.5431V41.5646L477.84 40.3927H478.009Z" fill="white"/>
<path d="M547.589 80.1502C547.089 80.1502 546.639 80.0508 546.238 79.8519C545.838 79.6531 545.517 79.3803 545.275 79.0338C545.034 78.6872 544.902 78.2923 544.879 77.8491H545.902C545.941 78.244 546.12 78.5707 546.438 78.8292C546.759 79.0849 547.143 79.2127 547.589 79.2127C547.947 79.2127 548.265 79.1289 548.544 78.9613C548.825 78.7937 549.045 78.5636 549.204 78.271C549.366 77.9755 549.447 77.6417 549.447 77.2696C549.447 76.8889 549.363 76.5494 549.196 76.2511C549.031 75.9499 548.803 75.7127 548.514 75.5394C548.224 75.3661 547.893 75.2781 547.521 75.2752C547.254 75.2724 546.98 75.3136 546.698 75.3988C546.417 75.4812 546.186 75.5877 546.004 75.7184L545.015 75.5991L545.544 71.3036H550.078V72.2411H546.43L546.123 74.815H546.174C546.353 74.673 546.578 74.5551 546.848 74.4613C547.117 74.3676 547.399 74.3207 547.691 74.3207C548.225 74.3207 548.701 74.4485 549.119 74.7042C549.539 74.9571 549.869 75.3036 550.107 75.744C550.349 76.1843 550.47 76.6872 550.47 77.2525C550.47 77.8093 550.345 78.3065 550.095 78.744C549.848 79.1786 549.507 79.5224 549.072 79.7752C548.637 80.0252 548.143 80.1502 547.589 80.1502ZM555.111 80.1502C554.549 80.1502 554.047 80.0536 553.607 79.8605C553.17 79.6673 552.822 79.3988 552.563 79.0551C552.307 78.7085 552.168 78.3065 552.145 77.8491H553.219C553.242 78.1303 553.339 78.3732 553.509 78.5778C553.68 78.7795 553.903 78.9357 554.178 79.0465C554.454 79.1573 554.759 79.2127 555.094 79.2127C555.469 79.2127 555.802 79.1474 556.091 79.0167C556.381 78.886 556.609 78.7042 556.773 78.4713C556.938 78.2383 557.02 77.9684 557.02 77.6616C557.02 77.3406 556.941 77.0579 556.782 76.8136C556.623 76.5664 556.39 76.3732 556.083 76.234C555.776 76.0948 555.401 76.0252 554.958 76.0252H554.259V75.0877H554.958C555.305 75.0877 555.609 75.0252 555.87 74.9002C556.134 74.7752 556.34 74.5991 556.488 74.3718C556.638 74.1446 556.714 73.8775 556.714 73.5707C556.714 73.2752 556.648 73.0181 556.518 72.7994C556.387 72.5806 556.202 72.4102 555.964 72.288C555.728 72.1659 555.449 72.1048 555.128 72.1048C554.827 72.1048 554.543 72.1602 554.276 72.271C554.012 72.3789 553.796 72.5366 553.628 72.744C553.461 72.9485 553.37 73.1957 553.356 73.4855H552.333C552.35 73.0281 552.488 72.6275 552.746 72.2838C553.005 71.9372 553.343 71.6673 553.761 71.4741C554.181 71.2809 554.643 71.1843 555.145 71.1843C555.685 71.1843 556.148 71.2937 556.535 71.5124C556.921 71.7284 557.218 72.0139 557.425 72.369C557.633 72.7241 557.736 73.1076 557.736 73.5196C557.736 74.011 557.607 74.4301 557.349 74.7767C557.093 75.1232 556.745 75.3633 556.305 75.4968V75.565C556.856 75.6559 557.286 75.8903 557.596 76.2681C557.905 76.6431 558.06 77.1076 558.06 77.6616C558.06 78.136 557.931 78.5622 557.672 78.94C557.417 79.315 557.067 79.6105 556.624 79.8264C556.181 80.0423 555.677 80.1502 555.111 80.1502Z" fill="white"/>
<defs>
<linearGradient id="paint0_linear_13_1705" x1="65.0849" y1="59.1113" x2="65.0849" y2="179.985" gradientUnits="userSpaceOnUse">
<stop stop-color="#0177FB"/>
<stop offset="1" stop-color="#0177FB" stop-opacity="0"/>
</linearGradient>
<linearGradient id="paint1_linear_13_1705" x1="141.665" y1="41.8433" x2="141.665" y2="179.985" gradientUnits="userSpaceOnUse">
<stop stop-color="#0177FB"/>
<stop offset="1" stop-color="#0177FB" stop-opacity="0"/>
</linearGradient>
<linearGradient id="paint2_linear_13_1705" x1="218.244" y1="76.3784" x2="218.244" y2="179.985" gradientUnits="userSpaceOnUse">
<stop stop-color="#0177FB"/>
<stop offset="1" stop-color="#0177FB" stop-opacity="0"/>
</linearGradient>
<linearGradient id="paint3_linear_13_1705" x1="294.825" y1="62.5647" x2="294.825" y2="179.985" gradientUnits="userSpaceOnUse">
<stop stop-color="#0177FB"/>
<stop offset="1" stop-color="#0177FB" stop-opacity="0"/>
</linearGradient>
<linearGradient id="paint4_linear_13_1705" x1="371.405" y1="72.925" x2="371.405" y2="179.985" gradientUnits="userSpaceOnUse">
<stop stop-color="#0177FB"/>
<stop offset="1" stop-color="#0177FB" stop-opacity="0"/>
</linearGradient>
<linearGradient id="paint5_linear_13_1705" x1="447.984" y1="53.9307" x2="447.984" y2="179.985" gradientUnits="userSpaceOnUse">
<stop stop-color="#0177FB"/>
<stop offset="1" stop-color="#0177FB" stop-opacity="0"/>
</linearGradient>
<linearGradient id="paint6_linear_13_1705" x1="524.564" y1="76.3784" x2="524.564" y2="179.985" gradientUnits="userSpaceOnUse">
<stop stop-color="#0177FB"/>
<stop offset="1" stop-color="#0177FB" stop-opacity="0"/>
</linearGradient>
<linearGradient id="paint7_linear_13_1705" x1="91.1545" y1="57.3842" x2="91.1545" y2="179.985" gradientUnits="userSpaceOnUse">
<stop offset="0.265625" stop-color="#28A745"/>
<stop offset="1" stop-color="#28A745" stop-opacity="0"/>
</linearGradient>
<linearGradient id="paint8_linear_13_1705" x1="167.734" y1="60.8374" x2="167.734" y2="179.985" gradientUnits="userSpaceOnUse">
<stop offset="0.265625" stop-color="#28A745"/>
<stop offset="1" stop-color="#28A745" stop-opacity="0"/>
</linearGradient>
<linearGradient id="paint9_linear_13_1705" x1="244.314" y1="105.734" x2="244.314" y2="179.985" gradientUnits="userSpaceOnUse">
<stop offset="0.265625" stop-color="#28A745"/>
<stop offset="1" stop-color="#28A745" stop-opacity="0"/>
</linearGradient>
<linearGradient id="paint10_linear_13_1705" x1="320.894" y1="79.8317" x2="320.894" y2="179.984" gradientUnits="userSpaceOnUse">
<stop offset="0.265625" stop-color="#28A745"/>
<stop offset="1" stop-color="#28A745" stop-opacity="0"/>
</linearGradient>
<linearGradient id="paint11_linear_13_1705" x1="397.474" y1="104.007" x2="397.474" y2="179.985" gradientUnits="userSpaceOnUse">
<stop offset="0.265625" stop-color="#28A745"/>
<stop offset="1" stop-color="#28A745" stop-opacity="0"/>
</linearGradient>
<linearGradient id="paint12_linear_13_1705" x1="474.054" y1="57.3842" x2="474.054" y2="179.985" gradientUnits="userSpaceOnUse">
<stop offset="0.265625" stop-color="#28A745"/>
<stop offset="1" stop-color="#28A745" stop-opacity="0"/>
</linearGradient>
<linearGradient id="paint13_linear_13_1705" x1="550.634" y1="88.4658" x2="550.634" y2="179.985" gradientUnits="userSpaceOnUse">
<stop offset="0.265625" stop-color="#28A745"/>
<stop offset="1" stop-color="#28A745" stop-opacity="0"/>
</linearGradient>
</defs>
</svg>
