<svg width="567" height="197" viewBox="0 0 567 197" fill="none" xmlns="http://www.w3.org/2000/svg">
<path d="M1.35227 14.5V4.31818H7.24361V5.15341H2.28196V8.98651H6.78125V9.82173H2.28196V14.5H1.35227ZM9.5554 14.5V4.31818H12.8416C13.5642 4.31818 14.1674 4.4491 14.6513 4.71094C15.1385 4.96946 15.5047 5.32907 15.75 5.78977C15.9986 6.24716 16.1229 6.77249 16.1229 7.36577C16.1229 7.95904 15.9986 8.48272 15.75 8.93679C15.5047 9.39086 15.1402 9.7455 14.6562 10.0007C14.1723 10.2559 13.5724 10.3835 12.8565 10.3835H10.0575V9.53338H12.8317C13.362 9.53338 13.8028 9.44555 14.1541 9.26989C14.5088 9.09422 14.7723 8.84399 14.9446 8.51918C15.1203 8.19437 15.2081 7.8099 15.2081 7.36577C15.2081 6.92164 15.1203 6.53385 14.9446 6.20241C14.7689 5.86766 14.5038 5.60914 14.1491 5.42685C13.7978 5.24455 13.3537 5.15341 12.8168 5.15341H10.4851V14.5H9.5554ZM14.0447 9.90625L16.5504 14.5H15.4766L12.9957 9.90625H14.0447ZM21.3107 4.31818V14.5H20.381V5.29261H20.3214L17.935 6.87855V5.91406L20.3413 4.31818H21.3107Z" fill="white"/>
<rect x="63" y="1.5" width="504" height="15" rx="1" fill="#28A745"/>
<rect x="265.326" y="1.5" width="25.2903" height="15" fill="#F1BE42"/>
<rect x="137.111" y="1.5" width="25.2903" height="15" fill="#DC3545"/>
<rect x="520.073" y="1.5" width="25.2903" height="15" fill="#F1BE42"/>
<rect x="290.616" y="1.5" width="59.6129" height="15" fill="#DC3545"/>
<rect x="440.553" y="1.5" width="59.6129" height="15" fill="#DC3545"/>
<path d="M1.35227 41.5V31.3182H7.24361V32.1534H2.28196V35.9865H6.78125V36.8217H2.28196V41.5H1.35227ZM9.5554 41.5V31.3182H12.8416C13.5642 31.3182 14.1674 31.4491 14.6513 31.7109C15.1385 31.9695 15.5047 32.3291 15.75 32.7898C15.9986 33.2472 16.1229 33.7725 16.1229 34.3658C16.1229 34.959 15.9986 35.4827 15.75 35.9368C15.5047 36.3909 15.1402 36.7455 14.6562 37.0007C14.1723 37.2559 13.5724 37.3835 12.8565 37.3835H10.0575V36.5334H12.8317C13.362 36.5334 13.8028 36.4455 14.1541 36.2699C14.5088 36.0942 14.7723 35.844 14.9446 35.5192C15.1203 35.1944 15.2081 34.8099 15.2081 34.3658C15.2081 33.9216 15.1203 33.5339 14.9446 33.2024C14.7689 32.8677 14.5038 32.6091 14.1491 32.4268C13.7978 32.2446 13.3537 32.1534 12.8168 32.1534H10.4851V41.5H9.5554ZM14.0447 36.9062L16.5504 41.5H15.4766L12.9957 36.9062H14.0447ZM18.1687 41.5V40.8189L21.4947 37.0803C21.9289 36.5897 22.2785 36.1705 22.5437 35.8224C22.8088 35.4744 23.0011 35.1529 23.1204 34.858C23.243 34.563 23.3043 34.2564 23.3043 33.9382C23.3043 33.5504 23.2132 33.2124 23.0309 32.924C22.8519 32.6323 22.605 32.4053 22.2901 32.2429C21.9753 32.0805 21.6206 31.9993 21.2262 31.9993C20.8086 31.9993 20.4424 32.0888 20.1275 32.2678C19.8159 32.4467 19.574 32.692 19.4016 33.0036C19.2293 33.3151 19.1431 33.6731 19.1431 34.0774H18.2532C18.2532 33.514 18.3825 33.0152 18.641 32.581C18.9028 32.1435 19.2591 31.8004 19.7099 31.5518C20.1639 31.3033 20.6777 31.179 21.2511 31.179C21.8178 31.179 22.3216 31.3016 22.7624 31.5469C23.2032 31.7888 23.5496 32.1186 23.8015 32.5362C24.0534 32.9538 24.1793 33.4212 24.1793 33.9382C24.1793 34.3127 24.113 34.6757 23.9805 35.027C23.8512 35.3783 23.6275 35.7694 23.3093 36.2003C22.9911 36.6312 22.5503 37.1581 21.9869 37.7812L19.4613 40.6001V40.6648H24.4975V41.5H18.1687Z" fill="white"/>
<rect x="65" y="28.5" width="502" height="15" rx="1" fill="#28A745"/>
<rect x="215.144" y="28.5" width="25.19" height="15" fill="#F1BE42"/>
<rect x="291.708" y="28.5" width="59.3763" height="15" fill="#DC3545"/>
<rect x="385.654" y="28.5" width="59.3763" height="15" fill="#F1BE42"/>
<path d="M1.35227 68.5V58.3182H4.63849C5.36103 58.3182 5.96425 58.4491 6.44815 58.7109C6.93537 58.9695 7.30161 59.3291 7.54688 59.7898C7.79545 60.2472 7.91974 60.7725 7.91974 61.3658C7.91974 61.959 7.79545 62.4827 7.54688 62.9368C7.30161 63.3909 6.93703 63.7455 6.45312 64.0007C5.96922 64.2559 5.36932 64.3835 4.65341 64.3835H1.8544V63.5334H4.62855C5.15885 63.5334 5.59967 63.4455 5.95099 63.2699C6.30563 63.0942 6.56913 62.844 6.74148 62.5192C6.91714 62.1944 7.00497 61.8099 7.00497 61.3658C7.00497 60.9216 6.91714 60.5339 6.74148 60.2024C6.56581 59.8677 6.30066 59.6091 5.94602 59.4268C5.5947 59.2446 5.15057 59.1534 4.61364 59.1534H2.28196V68.5H1.35227ZM5.84162 63.9062L8.3473 68.5H7.27344L4.79261 63.9062H5.84162ZM10.1843 68.5V58.3182H13.4705C14.1931 58.3182 14.7963 58.4491 15.2802 58.7109C15.7674 58.9695 16.1336 59.3291 16.3789 59.7898C16.6275 60.2472 16.7518 60.7725 16.7518 61.3658C16.7518 61.959 16.6275 62.4827 16.3789 62.9368C16.1336 63.3909 15.7691 63.7455 15.2852 64.0007C14.8013 64.2559 14.2013 64.3835 13.4854 64.3835H10.6864V63.5334H13.4606C13.9909 63.5334 14.4317 63.4455 14.783 63.2699C15.1377 63.0942 15.4012 62.844 15.5735 62.5192C15.7492 62.1944 15.837 61.8099 15.837 61.3658C15.837 60.9216 15.7492 60.5339 15.5735 60.2024C15.3978 59.8677 15.1327 59.6091 14.7781 59.4268C14.4267 59.2446 13.9826 59.1534 13.4457 59.1534H11.114V68.5H10.1843ZM14.6737 63.9062L17.1793 68.5H16.1055L13.6246 63.9062H14.6737ZM18.7976 68.5V67.8189L22.1236 64.0803C22.5578 63.5897 22.9074 63.1705 23.1726 62.8224C23.4377 62.4744 23.63 62.1529 23.7493 61.858C23.8719 61.563 23.9332 61.2564 23.9332 60.9382C23.9332 60.5504 23.8421 60.2124 23.6598 59.924C23.4808 59.6323 23.2339 59.4053 22.919 59.2429C22.6042 59.0805 22.2495 58.9993 21.8551 58.9993C21.4375 58.9993 21.0713 59.0888 20.7564 59.2678C20.4448 59.4467 20.2029 59.692 20.0305 60.0036C19.8582 60.3151 19.772 60.6731 19.772 61.0774H18.8821C18.8821 60.514 19.0114 60.0152 19.2699 59.581C19.5317 59.1435 19.888 58.8004 20.3388 58.5518C20.7929 58.3033 21.3066 58.179 21.88 58.179C22.4467 58.179 22.9505 58.3016 23.3913 58.5469C23.8321 58.7888 24.1785 59.1186 24.4304 59.5362C24.6823 59.9538 24.8082 60.4212 24.8082 60.9382C24.8082 61.3127 24.742 61.6757 24.6094 62.027C24.4801 62.3783 24.2564 62.7694 23.9382 63.2003C23.62 63.6312 23.1792 64.1581 22.6158 64.7812L20.0902 67.6001V67.6648H25.1264V68.5H18.7976Z" fill="white"/>
<rect x="65" y="55.5" width="502" height="15" rx="1" fill="#28A745"/>
<rect x="445.599" y="55.5" width="25.19" height="15" fill="#F1BE42"/>
<rect x="191.663" y="55.5" width="25.19" height="15" fill="#F1BE42"/>
<rect x="102.358" y="55.5" width="59.3763" height="15" fill="#DC3545"/>
<path d="M1.35227 95.5V85.3182H4.63849C5.36103 85.3182 5.96425 85.4491 6.44815 85.7109C6.93537 85.9695 7.30161 86.3291 7.54688 86.7898C7.79545 87.2472 7.91974 87.7725 7.91974 88.3658C7.91974 88.959 7.79545 89.4827 7.54688 89.9368C7.30161 90.3909 6.93703 90.7455 6.45312 91.0007C5.96922 91.2559 5.36932 91.3835 4.65341 91.3835H1.8544V90.5334H4.62855C5.15885 90.5334 5.59967 90.4455 5.95099 90.2699C6.30563 90.0942 6.56913 89.844 6.74148 89.5192C6.91714 89.1944 7.00497 88.8099 7.00497 88.3658C7.00497 87.9216 6.91714 87.5339 6.74148 87.2024C6.56581 86.8677 6.30066 86.6091 5.94602 86.4268C5.5947 86.2446 5.15057 86.1534 4.61364 86.1534H2.28196V95.5H1.35227ZM5.84162 90.9062L8.3473 95.5H7.27344L4.79261 90.9062H5.84162ZM10.1843 95.5V85.3182H13.4705C14.1931 85.3182 14.7963 85.4491 15.2802 85.7109C15.7674 85.9695 16.1336 86.3291 16.3789 86.7898C16.6275 87.2472 16.7518 87.7725 16.7518 88.3658C16.7518 88.959 16.6275 89.4827 16.3789 89.9368C16.1336 90.3909 15.7691 90.7455 15.2852 91.0007C14.8013 91.2559 14.2013 91.3835 13.4854 91.3835H10.6864V90.5334H13.4606C13.9909 90.5334 14.4317 90.4455 14.783 90.2699C15.1377 90.0942 15.4012 89.844 15.5735 89.5192C15.7492 89.1944 15.837 88.8099 15.837 88.3658C15.837 87.9216 15.7492 87.5339 15.5735 87.2024C15.3978 86.8677 15.1327 86.6091 14.7781 86.4268C14.4267 86.2446 13.9826 86.1534 13.4457 86.1534H11.114V95.5H10.1843ZM14.6737 90.9062L17.1793 95.5H16.1055L13.6246 90.9062H14.6737ZM22.1037 95.6392C21.4773 95.6392 20.9171 95.5265 20.4233 95.3011C19.9295 95.0724 19.5384 94.7559 19.25 94.3516C18.9616 93.9472 18.8092 93.4815 18.7926 92.9545H19.7322C19.7488 93.3258 19.8632 93.6506 20.0753 93.929C20.2874 94.2041 20.5691 94.4195 20.9205 94.5753C21.2718 94.7277 21.6629 94.804 22.0938 94.804C22.5644 94.804 22.9787 94.7161 23.3366 94.5405C23.6979 94.3648 23.9796 94.1245 24.1818 93.8196C24.3873 93.5114 24.4901 93.1634 24.4901 92.7756C24.4901 92.3646 24.3857 92.0017 24.1768 91.6868C23.968 91.3719 23.6681 91.1267 23.277 90.951C22.8892 90.7753 22.4252 90.6875 21.8849 90.6875H21.2884V89.8523H21.8849C22.3258 89.8523 22.7152 89.7727 23.0533 89.6136C23.3946 89.4512 23.6631 89.2242 23.8587 88.9325C24.0542 88.6409 24.152 88.2978 24.152 87.9034C24.152 87.5289 24.0675 87.1991 23.8984 86.9141C23.7294 86.629 23.4908 86.4053 23.1825 86.2429C22.8776 86.0805 22.5213 85.9993 22.1136 85.9993C21.7192 85.9993 21.358 86.0755 21.0298 86.228C20.7017 86.3804 20.4366 86.5959 20.2344 86.8743C20.0355 87.1527 19.9295 87.4825 19.9162 87.8636H19.0163C19.0296 87.3333 19.1754 86.8677 19.4538 86.4666C19.7356 86.0623 20.1084 85.7474 20.5724 85.522C21.0398 85.2933 21.5568 85.179 22.1236 85.179C22.7235 85.179 23.2422 85.3016 23.6797 85.5469C24.1172 85.7921 24.4553 86.1186 24.6939 86.5263C24.9358 86.9306 25.0568 87.3764 25.0568 87.8636C25.0568 88.4437 24.8994 88.9408 24.5845 89.3551C24.2696 89.7661 23.8454 90.0511 23.3118 90.2102V90.2749C23.9614 90.4041 24.4718 90.6925 24.843 91.1399C25.2176 91.584 25.4048 92.1293 25.4048 92.7756C25.4048 93.3191 25.2623 93.808 24.9773 94.2422C24.6922 94.6731 24.3011 95.0144 23.804 95.2663C23.3101 95.5149 22.7434 95.6392 22.1037 95.6392Z" fill="white"/>
<rect x="65" y="82.5" width="502" height="15" rx="1" fill="#28A745"/>
<rect x="266.52" y="82.5" width="25.19" height="15" fill="#F1BE42"/>
<rect x="169.217" y="82.5" width="11.7427" height="15" fill="#DC3545"/>
<path d="M1.35227 122.5V112.318H4.63849C5.36103 112.318 5.96425 112.449 6.44815 112.711C6.93537 112.969 7.30161 113.329 7.54688 113.79C7.79545 114.247 7.91974 114.772 7.91974 115.366C7.91974 115.959 7.79545 116.483 7.54688 116.937C7.30161 117.391 6.93703 117.746 6.45312 118.001C5.96922 118.256 5.36932 118.384 4.65341 118.384H1.8544V117.533H4.62855C5.15885 117.533 5.59967 117.446 5.95099 117.27C6.30563 117.094 6.56913 116.844 6.74148 116.519C6.91714 116.194 7.00497 115.81 7.00497 115.366C7.00497 114.922 6.91714 114.534 6.74148 114.202C6.56581 113.868 6.30066 113.609 5.94602 113.427C5.5947 113.245 5.15057 113.153 4.61364 113.153H2.28196V122.5H1.35227ZM5.84162 117.906L8.3473 122.5H7.27344L4.79261 117.906H5.84162ZM10.1843 122.5V112.318H13.4705C14.1931 112.318 14.7963 112.449 15.2802 112.711C15.7674 112.969 16.1336 113.329 16.3789 113.79C16.6275 114.247 16.7518 114.772 16.7518 115.366C16.7518 115.959 16.6275 116.483 16.3789 116.937C16.1336 117.391 15.7691 117.746 15.2852 118.001C14.8013 118.256 14.2013 118.384 13.4854 118.384H10.6864V117.533H13.4606C13.9909 117.533 14.4317 117.446 14.783 117.27C15.1377 117.094 15.4012 116.844 15.5735 116.519C15.7492 116.194 15.837 115.81 15.837 115.366C15.837 114.922 15.7492 114.534 15.5735 114.202C15.3978 113.868 15.1327 113.609 14.7781 113.427C14.4267 113.245 13.9826 113.153 13.4457 113.153H11.114V122.5H10.1843ZM14.6737 117.906L17.1793 122.5H16.1055L13.6246 117.906H14.6737ZM18.554 120.312V119.557L23.093 112.318H23.6499V113.586H23.2372L19.593 119.413V119.477H25.544V120.312H18.554ZM23.3068 122.5V120.074V119.726V112.318H24.1918V122.5H23.3068Z" fill="white"/>
<rect x="65" y="109.5" width="502" height="15" rx="1" fill="#28A745"/>
<rect x="229.818" y="109.5" width="25.19" height="15" fill="#F1BE42"/>
<path d="M8.39702 142.5C8.30421 142.162 8.16832 141.845 7.98935 141.55C7.81037 141.252 7.58831 140.992 7.32315 140.77C7.06132 140.545 6.75805 140.369 6.41335 140.243C6.07197 140.117 5.69081 140.054 5.26989 140.054C4.60701 140.054 4.01373 140.226 3.49006 140.571C2.96638 140.916 2.55208 141.413 2.24716 142.062C1.94555 142.712 1.79474 143.494 1.79474 144.409C1.79474 145.321 1.94721 146.101 2.25213 146.751C2.55706 147.4 2.97467 147.899 3.50497 148.247C4.03859 148.592 4.64844 148.764 5.33452 148.764C5.96094 148.764 6.51444 148.625 6.99503 148.347C7.47562 148.068 7.85014 147.67 8.11861 147.153C8.39039 146.636 8.52296 146.022 8.51634 145.309L8.81463 145.403H5.55327V144.568H9.42117V145.403C9.42117 146.272 9.2455 147.022 8.89418 147.656C8.54285 148.289 8.06061 148.777 7.44744 149.122C6.83428 149.467 6.12997 149.639 5.33452 149.639C4.44626 149.639 3.66903 149.425 3.00284 148.998C2.33665 148.567 1.81795 147.96 1.44673 147.178C1.07884 146.393 0.894886 145.47 0.894886 144.409C0.894886 143.61 1.00095 142.889 1.21307 142.246C1.42519 141.603 1.72514 141.053 2.11293 140.596C2.50402 140.138 2.96638 139.789 3.5 139.547C4.03362 139.302 4.62358 139.179 5.26989 139.179C5.8267 139.179 6.33546 139.267 6.79616 139.442C7.26018 139.618 7.66785 139.86 8.01918 140.168C8.37382 140.473 8.66383 140.826 8.8892 141.227C9.1179 141.625 9.27202 142.049 9.35156 142.5H8.39702ZM11.4297 149.5H10.4553L14.1591 139.318H15.1534L18.8572 149.5H17.8828L14.6911 140.526H14.6214L11.4297 149.5ZM12.1307 145.597H17.1818V146.433H12.1307V145.597Z" fill="white"/>
<rect x="65" y="136.5" width="502" height="15" rx="1" fill="#28A745"/>
<rect x="229.819" y="136.5" width="25.19" height="15" fill="#F1BE42"/>
<path d="M1.35227 176.5V166.318H4.63849C5.36103 166.318 5.96425 166.457 6.44815 166.736C6.93537 167.011 7.30161 167.385 7.54688 167.859C7.79545 168.333 7.91974 168.867 7.91974 169.46C7.91974 170.054 7.79711 170.589 7.55185 171.066C7.30658 171.54 6.942 171.916 6.4581 172.195C5.9742 172.47 5.37263 172.607 4.65341 172.607H2.06818V171.772H4.62855C5.16217 171.772 5.60464 171.673 5.95597 171.474C6.30729 171.272 6.56913 170.996 6.74148 170.648C6.91714 170.3 7.00497 169.904 7.00497 169.46C7.00497 169.016 6.91714 168.62 6.74148 168.272C6.56913 167.924 6.30563 167.651 5.95099 167.452C5.59967 167.253 5.15388 167.153 4.61364 167.153H2.28196V176.5H1.35227ZM13.0852 176.5H10.1023V166.318H13.2642C14.2353 166.318 15.0656 166.52 15.755 166.925C16.4477 167.329 16.978 167.909 17.3459 168.665C17.7138 169.42 17.8977 170.327 17.8977 171.384C17.8977 172.451 17.7088 173.368 17.331 174.134C16.9564 174.896 16.4096 175.481 15.6903 175.888C14.9744 176.296 14.1061 176.5 13.0852 176.5ZM11.032 175.665H13.0305C13.9055 175.665 14.638 175.492 15.228 175.148C15.8179 174.803 16.2604 174.311 16.5554 173.671C16.8504 173.031 16.9979 172.269 16.9979 171.384C16.9946 170.506 16.8487 169.75 16.5604 169.117C16.2753 168.484 15.8511 167.999 15.2876 167.661C14.7275 167.322 14.0348 167.153 13.2095 167.153H11.032V175.665ZM20.1511 176.5V166.318H21.0808V170.987H26.8578V166.318H27.7875V176.5H26.8578V171.822H21.0808V176.5H20.1511ZM30.487 176.5V166.318H31.4167V175.665H36.269V176.5H30.487Z" fill="white"/>
<rect x="65" y="163.5" width="502" height="15" rx="1" fill="#28A745"/>
<rect x="229.818" y="163.5" width="25.19" height="15" fill="#F1BE42"/>
<path d="M73.0417 194.599C72.5066 194.599 72.0509 194.454 71.6745 194.163C71.2981 193.869 71.0104 193.444 70.8116 192.888C70.6127 192.329 70.5133 191.654 70.5133 190.864C70.5133 190.078 70.6127 189.406 70.8116 188.85C71.0128 188.291 71.3016 187.865 71.678 187.572C72.0568 187.276 72.5114 187.128 73.0417 187.128C73.572 187.128 74.0253 187.276 74.4018 187.572C74.7805 187.865 75.0694 188.291 75.2682 188.85C75.4695 189.406 75.5701 190.078 75.5701 190.864C75.5701 191.654 75.4706 192.329 75.2718 192.888C75.0729 193.444 74.7853 193.869 74.4089 194.163C74.0324 194.454 73.5767 194.599 73.0417 194.599ZM73.0417 193.818C73.572 193.818 73.9839 193.562 74.2775 193.051C74.571 192.54 74.7178 191.811 74.7178 190.864C74.7178 190.234 74.6503 189.698 74.5154 189.255C74.3828 188.812 74.1911 188.475 73.9401 188.243C73.6915 188.011 73.392 187.895 73.0417 187.895C72.5161 187.895 72.1054 188.154 71.8094 188.673C71.5135 189.189 71.3655 189.919 71.3655 190.864C71.3655 191.493 71.4318 192.028 71.5644 192.469C71.697 192.909 71.8875 193.244 72.1361 193.474C72.3871 193.703 72.6889 193.818 73.0417 193.818Z" fill="white"/>
<path d="M95.1105 187.227V194.5H94.2298V188.151H94.1872L92.4116 189.33V188.435L94.2298 187.227H95.1105Z" fill="white"/>
<path d="M112.934 194.5V193.861L115.334 191.233C115.616 190.925 115.848 190.658 116.03 190.43C116.213 190.201 116.348 189.985 116.435 189.784C116.525 189.58 116.57 189.367 116.57 189.145C116.57 188.889 116.509 188.668 116.386 188.481C116.265 188.294 116.099 188.149 115.888 188.048C115.678 187.946 115.441 187.895 115.178 187.895C114.899 187.895 114.655 187.953 114.447 188.069C114.241 188.183 114.081 188.342 113.967 188.548C113.856 188.754 113.8 188.996 113.8 189.273H112.962C112.962 188.847 113.06 188.473 113.257 188.151C113.453 187.829 113.721 187.578 114.06 187.398C114.4 187.218 114.783 187.128 115.207 187.128C115.633 187.128 116.01 187.218 116.339 187.398C116.668 187.578 116.926 187.82 117.114 188.126C117.301 188.431 117.394 188.771 117.394 189.145C117.394 189.412 117.346 189.674 117.248 189.93C117.154 190.183 116.988 190.466 116.751 190.778C116.517 191.089 116.191 191.467 115.775 191.915L114.141 193.662V193.719H117.522V194.5H112.934Z" fill="white"/>
<path d="M136.318 194.599C135.85 194.599 135.432 194.519 135.065 194.358C134.7 194.197 134.41 193.973 134.195 193.687C133.982 193.398 133.866 193.063 133.847 192.682H134.742C134.761 192.916 134.841 193.119 134.983 193.289C135.125 193.457 135.311 193.587 135.541 193.68C135.77 193.772 136.025 193.818 136.304 193.818C136.617 193.818 136.894 193.764 137.135 193.655C137.377 193.546 137.566 193.394 137.703 193.2C137.841 193.006 137.909 192.781 137.909 192.526C137.909 192.258 137.843 192.022 137.71 191.819C137.578 191.613 137.384 191.452 137.128 191.336C136.872 191.22 136.56 191.162 136.19 191.162H135.608V190.381H136.19C136.479 190.381 136.733 190.329 136.95 190.224C137.171 190.12 137.342 189.973 137.465 189.784C137.591 189.595 137.654 189.372 137.654 189.116C137.654 188.87 137.599 188.656 137.49 188.474C137.381 188.291 137.227 188.149 137.029 188.048C136.832 187.946 136.6 187.895 136.333 187.895C136.082 187.895 135.845 187.941 135.622 188.033C135.402 188.123 135.222 188.255 135.083 188.428C134.943 188.598 134.867 188.804 134.855 189.045H134.003C134.017 188.664 134.132 188.33 134.347 188.044C134.563 187.755 134.845 187.53 135.193 187.369C135.543 187.208 135.928 187.128 136.347 187.128C136.797 187.128 137.182 187.219 137.504 187.401C137.826 187.581 138.074 187.819 138.247 188.115C138.419 188.411 138.506 188.731 138.506 189.074C138.506 189.483 138.398 189.833 138.183 190.121C137.97 190.41 137.68 190.61 137.313 190.722V190.778C137.772 190.854 138.131 191.049 138.389 191.364C138.647 191.677 138.776 192.064 138.776 192.526C138.776 192.921 138.668 193.276 138.453 193.591C138.239 193.903 137.948 194.15 137.579 194.33C137.21 194.509 136.789 194.599 136.318 194.599Z" fill="white"/>
<path d="M154.749 193.009V192.284L157.945 187.227H158.471V188.349H158.116L155.701 192.17V192.227H160.005V193.009H154.749ZM158.173 194.5V192.788V192.451V187.227H159.011V194.5H158.173Z" fill="white"/>
<path d="M178.442 194.599C178.025 194.599 177.65 194.517 177.316 194.351C176.982 194.185 176.715 193.958 176.514 193.669C176.312 193.38 176.202 193.051 176.183 192.682H177.036C177.069 193.011 177.218 193.283 177.483 193.499C177.751 193.712 178.07 193.818 178.442 193.818C178.74 193.818 179.005 193.748 179.237 193.609C179.472 193.469 179.655 193.277 179.788 193.033C179.923 192.787 179.99 192.509 179.99 192.199C179.99 191.882 179.92 191.599 179.781 191.35C179.643 191.099 179.454 190.902 179.213 190.757C178.971 190.613 178.695 190.539 178.385 190.537C178.163 190.535 177.934 190.569 177.7 190.64C177.465 190.709 177.272 190.797 177.121 190.906L176.297 190.807L176.737 187.227H180.516V188.009H177.476L177.22 190.153H177.263C177.412 190.035 177.599 189.937 177.824 189.859C178.049 189.781 178.283 189.741 178.527 189.741C178.972 189.741 179.369 189.848 179.717 190.061C180.067 190.272 180.342 190.561 180.541 190.928C180.742 191.295 180.842 191.714 180.842 192.185C180.842 192.649 180.738 193.063 180.53 193.428C180.324 193.79 180.04 194.076 179.678 194.287C179.316 194.495 178.904 194.599 178.442 194.599Z" fill="white"/>
<path d="M199.589 194.599C199.291 194.595 198.993 194.538 198.694 194.429C198.396 194.32 198.124 194.137 197.878 193.879C197.631 193.618 197.434 193.267 197.284 192.824C197.135 192.379 197.061 191.82 197.061 191.148C197.061 190.504 197.121 189.933 197.242 189.436C197.363 188.937 197.538 188.516 197.767 188.175C197.997 187.832 198.274 187.572 198.598 187.394C198.925 187.217 199.293 187.128 199.703 187.128C200.11 187.128 200.472 187.21 200.789 187.373C201.109 187.534 201.369 187.759 201.571 188.048C201.772 188.336 201.902 188.669 201.961 189.045H201.095C201.014 188.719 200.858 188.448 200.626 188.232C200.394 188.017 200.086 187.909 199.703 187.909C199.139 187.909 198.695 188.154 198.371 188.644C198.049 189.134 197.887 189.822 197.885 190.707H197.941C198.074 190.506 198.231 190.335 198.414 190.192C198.598 190.048 198.802 189.937 199.025 189.859C199.247 189.781 199.483 189.741 199.731 189.741C200.148 189.741 200.529 189.846 200.875 190.054C201.22 190.26 201.497 190.545 201.706 190.91C201.914 191.272 202.018 191.688 202.018 192.156C202.018 192.606 201.918 193.018 201.716 193.392C201.515 193.764 201.232 194.06 200.868 194.28C200.505 194.498 200.079 194.604 199.589 194.599ZM199.589 193.818C199.887 193.818 200.155 193.744 200.392 193.594C200.631 193.445 200.819 193.245 200.956 192.994C201.096 192.743 201.166 192.464 201.166 192.156C201.166 191.856 201.098 191.582 200.963 191.336C200.831 191.087 200.647 190.89 200.413 190.743C200.181 190.596 199.916 190.523 199.618 190.523C199.393 190.523 199.183 190.568 198.989 190.658C198.795 190.745 198.624 190.866 198.478 191.02C198.333 191.174 198.22 191.35 198.137 191.549C198.054 191.746 198.012 191.953 198.012 192.17C198.012 192.459 198.08 192.729 198.215 192.98C198.352 193.231 198.539 193.433 198.776 193.587C199.015 193.741 199.286 193.818 199.589 193.818Z" fill="white"/>
<path d="M218.749 194.5L222.002 188.065V188.009H218.252V187.227H222.911V188.051L219.672 194.5H218.749Z" fill="white"/>
<path d="M241.71 194.599C241.222 194.599 240.791 194.513 240.417 194.34C240.045 194.165 239.755 193.925 239.547 193.619C239.339 193.312 239.236 192.961 239.238 192.568C239.236 192.26 239.296 191.976 239.419 191.716C239.542 191.453 239.71 191.234 239.923 191.059C240.139 190.881 240.379 190.769 240.644 190.722V190.679C240.296 190.589 240.019 190.394 239.813 190.093C239.607 189.79 239.506 189.446 239.508 189.06C239.506 188.69 239.599 188.36 239.789 188.069C239.978 187.778 240.238 187.548 240.57 187.38C240.904 187.212 241.284 187.128 241.71 187.128C242.131 187.128 242.508 187.212 242.839 187.38C243.17 187.548 243.431 187.778 243.62 188.069C243.812 188.36 243.909 188.69 243.911 189.06C243.909 189.446 243.804 189.79 243.595 190.093C243.389 190.394 243.116 190.589 242.775 190.679V190.722C243.038 190.769 243.275 190.881 243.485 191.059C243.696 191.234 243.864 191.453 243.99 191.716C244.115 191.976 244.179 192.26 244.181 192.568C244.179 192.961 244.072 193.312 243.862 193.619C243.653 193.925 243.363 194.165 242.992 194.34C242.622 194.513 242.195 194.599 241.71 194.599ZM241.71 193.818C242.039 193.818 242.323 193.765 242.562 193.658C242.801 193.552 242.986 193.402 243.116 193.207C243.246 193.013 243.312 192.786 243.315 192.526C243.312 192.251 243.241 192.008 243.102 191.798C242.962 191.587 242.771 191.421 242.53 191.3C242.291 191.18 242.017 191.119 241.71 191.119C241.4 191.119 241.123 191.18 240.879 191.3C240.637 191.421 240.447 191.587 240.307 191.798C240.17 192.008 240.102 192.251 240.105 192.526C240.102 192.786 240.165 193.013 240.293 193.207C240.423 193.402 240.609 193.552 240.85 193.658C241.092 193.765 241.378 193.818 241.71 193.818ZM241.71 190.366C241.97 190.366 242.201 190.314 242.402 190.21C242.606 190.106 242.766 189.96 242.882 189.773C242.998 189.586 243.057 189.367 243.059 189.116C243.057 188.87 242.999 188.656 242.885 188.474C242.771 188.289 242.614 188.147 242.413 188.048C242.212 187.946 241.977 187.895 241.71 187.895C241.437 187.895 241.2 187.946 240.996 188.048C240.792 188.147 240.635 188.289 240.524 188.474C240.412 188.656 240.358 188.87 240.36 189.116C240.358 189.367 240.414 189.586 240.527 189.773C240.643 189.96 240.803 190.106 241.007 190.21C241.21 190.314 241.445 190.366 241.71 190.366Z" fill="white"/>
<path d="M262.74 187.128C263.038 187.13 263.336 187.187 263.635 187.298C263.933 187.41 264.205 187.594 264.451 187.852C264.698 188.108 264.895 188.457 265.044 188.9C265.194 189.343 265.268 189.898 265.268 190.565C265.268 191.212 265.207 191.786 265.083 192.288C264.963 192.787 264.788 193.209 264.558 193.552C264.331 193.895 264.054 194.156 263.727 194.333C263.403 194.511 263.036 194.599 262.626 194.599C262.219 194.599 261.855 194.519 261.536 194.358C261.219 194.195 260.958 193.969 260.755 193.68C260.553 193.388 260.424 193.051 260.368 192.668H261.234C261.312 193.001 261.467 193.277 261.699 193.495C261.934 193.71 262.243 193.818 262.626 193.818C263.187 193.818 263.63 193.573 263.954 193.083C264.281 192.593 264.444 191.901 264.444 191.006H264.387C264.255 191.205 264.097 191.376 263.915 191.521C263.733 191.665 263.53 191.776 263.308 191.854C263.085 191.933 262.849 191.972 262.598 191.972C262.181 191.972 261.799 191.869 261.451 191.663C261.105 191.454 260.828 191.169 260.62 190.807C260.414 190.442 260.311 190.026 260.311 189.557C260.311 189.112 260.41 188.705 260.609 188.335C260.81 187.964 261.092 187.668 261.454 187.447C261.819 187.227 262.247 187.121 262.74 187.128ZM262.74 187.909C262.441 187.909 262.173 187.984 261.934 188.133C261.697 188.28 261.509 188.478 261.369 188.729C261.232 188.978 261.163 189.254 261.163 189.557C261.163 189.86 261.229 190.136 261.362 190.384C261.497 190.63 261.68 190.827 261.912 190.974C262.147 191.118 262.413 191.19 262.711 191.19C262.936 191.19 263.146 191.147 263.34 191.059C263.534 190.969 263.703 190.847 263.848 190.693C263.994 190.537 264.109 190.361 264.192 190.164C264.275 189.965 264.316 189.758 264.316 189.543C264.316 189.259 264.248 188.992 264.11 188.744C263.976 188.495 263.789 188.294 263.549 188.14C263.313 187.986 263.043 187.909 262.74 187.909Z" fill="white"/>
<path d="M281.735 187.227V194.5H280.855V188.151H280.812L279.037 189.33V188.435L280.855 187.227H281.735ZM286.199 194.599C285.664 194.599 285.208 194.454 284.832 194.163C284.456 193.869 284.168 193.444 283.969 192.888C283.77 192.329 283.671 191.654 283.671 190.864C283.671 190.078 283.77 189.406 283.969 188.85C284.17 188.291 284.459 187.865 284.836 187.572C285.214 187.276 285.669 187.128 286.199 187.128C286.73 187.128 287.183 187.276 287.559 187.572C287.938 187.865 288.227 188.291 288.426 188.85C288.627 189.406 288.728 190.078 288.728 190.864C288.728 191.654 288.628 192.329 288.429 192.888C288.23 193.444 287.943 193.869 287.566 194.163C287.19 194.454 286.734 194.599 286.199 194.599ZM286.199 193.818C286.73 193.818 287.141 193.562 287.435 193.051C287.729 192.54 287.875 191.811 287.875 190.864C287.875 190.234 287.808 189.698 287.673 189.255C287.54 188.812 287.349 188.475 287.098 188.243C286.849 188.011 286.55 187.895 286.199 187.895C285.674 187.895 285.263 188.154 284.967 188.673C284.671 189.189 284.523 189.919 284.523 190.864C284.523 191.493 284.589 192.028 284.722 192.469C284.855 192.909 285.045 193.244 285.294 193.474C285.545 193.703 285.846 193.818 286.199 193.818Z" fill="white"/>
<path d="M303.62 187.227V194.5H302.739V188.151H302.696L300.921 189.33V188.435L302.739 187.227H303.62ZM308.268 187.227V194.5H307.387V188.151H307.345L305.569 189.33V188.435L307.387 187.227H308.268Z" fill="white"/>
<path d="M324 187.227V194.5H323.119V188.151H323.076L321.301 189.33V188.435L323.119 187.227H324ZM326.091 194.5V193.861L328.492 191.233C328.774 190.925 329.006 190.658 329.188 190.43C329.37 190.201 329.505 189.985 329.593 189.784C329.683 189.58 329.728 189.367 329.728 189.145C329.728 188.889 329.666 188.668 329.543 188.481C329.422 188.294 329.257 188.149 329.046 188.048C328.835 187.946 328.598 187.895 328.336 187.895C328.056 187.895 327.813 187.953 327.604 188.069C327.398 188.183 327.238 188.342 327.125 188.548C327.013 188.754 326.958 188.996 326.958 189.273H326.12C326.12 188.847 326.218 188.473 326.415 188.151C326.611 187.829 326.879 187.578 327.217 187.398C327.558 187.218 327.94 187.128 328.364 187.128C328.79 187.128 329.168 187.218 329.497 187.398C329.826 187.578 330.084 187.82 330.271 188.126C330.458 188.431 330.552 188.771 330.552 189.145C330.552 189.412 330.503 189.674 330.406 189.93C330.311 190.183 330.146 190.466 329.909 190.778C329.674 191.089 329.349 191.467 328.932 191.915L327.299 193.662V193.719H330.679V194.5H326.091Z" fill="white"/>
<path d="M344.927 187.227V194.5H344.046V188.151H344.004L342.228 189.33V188.435L344.046 187.227H344.927ZM349.476 194.599C349.007 194.599 348.589 194.519 348.222 194.358C347.858 194.197 347.568 193.973 347.352 193.687C347.139 193.398 347.023 193.063 347.004 192.682H347.899C347.918 192.916 347.999 193.119 348.141 193.289C348.283 193.457 348.468 193.587 348.698 193.68C348.928 193.772 349.182 193.818 349.462 193.818C349.774 193.818 350.051 193.764 350.293 193.655C350.534 193.546 350.723 193.394 350.861 193.2C350.998 193.006 351.067 192.781 351.067 192.526C351.067 192.258 351 192.022 350.868 191.819C350.735 191.613 350.541 191.452 350.285 191.336C350.03 191.22 349.717 191.162 349.348 191.162H348.766V190.381H349.348C349.637 190.381 349.89 190.329 350.108 190.224C350.328 190.12 350.5 189.973 350.623 189.784C350.748 189.595 350.811 189.372 350.811 189.116C350.811 188.87 350.757 188.656 350.648 188.474C350.539 188.291 350.385 188.149 350.186 188.048C349.99 187.946 349.758 187.895 349.49 187.895C349.239 187.895 349.002 187.941 348.78 188.033C348.56 188.123 348.38 188.255 348.24 188.428C348.1 188.598 348.025 188.804 348.013 189.045H347.16C347.175 188.664 347.29 188.33 347.505 188.044C347.72 187.755 348.002 187.53 348.35 187.369C348.701 187.208 349.085 187.128 349.504 187.128C349.954 187.128 350.34 187.219 350.662 187.401C350.984 187.581 351.231 187.819 351.404 188.115C351.577 188.411 351.663 188.731 351.663 189.074C351.663 189.483 351.556 189.833 351.34 190.121C351.127 190.41 350.837 190.61 350.47 190.722V190.778C350.929 190.854 351.288 191.049 351.546 191.364C351.804 191.677 351.933 192.064 351.933 192.526C351.933 192.921 351.826 193.276 351.61 193.591C351.397 193.903 351.106 194.15 350.736 194.33C350.367 194.509 349.947 194.599 349.476 194.599Z" fill="white"/>
<path d="M365.986 187.227V194.5H365.105V188.151H365.062L363.287 189.33V188.435L365.105 187.227H365.986ZM367.907 193.009V192.284L371.103 187.227H371.629V188.349H371.273L368.859 192.17V192.227H373.163V193.009H367.907ZM371.33 194.5V192.788V192.451V187.227H372.168V194.5H371.33Z" fill="white"/>
<path d="M387.235 187.227V194.5H386.354V188.151H386.312L384.536 189.33V188.435L386.354 187.227H387.235ZM391.599 194.599C391.183 194.599 390.808 194.517 390.474 194.351C390.14 194.185 389.872 193.958 389.671 193.669C389.47 193.38 389.36 193.051 389.341 192.682H390.193C390.226 193.011 390.376 193.283 390.641 193.499C390.908 193.712 391.228 193.818 391.599 193.818C391.898 193.818 392.163 193.748 392.395 193.609C392.629 193.469 392.813 193.277 392.945 193.033C393.08 192.787 393.148 192.509 393.148 192.199C393.148 191.882 393.078 191.599 392.938 191.35C392.801 191.099 392.612 190.902 392.37 190.757C392.129 190.613 391.853 190.539 391.543 190.537C391.32 190.535 391.092 190.569 390.857 190.64C390.623 190.709 390.43 190.797 390.278 190.906L389.455 190.807L389.895 187.227H393.673V188.009H390.634L390.378 190.153H390.42C390.57 190.035 390.757 189.937 390.982 189.859C391.206 189.781 391.441 189.741 391.685 189.741C392.13 189.741 392.526 189.848 392.874 190.061C393.225 190.272 393.499 190.561 393.698 190.928C393.899 191.295 394 191.714 394 192.185C394 192.649 393.896 193.063 393.688 193.428C393.482 193.79 393.197 194.076 392.835 194.287C392.473 194.495 392.061 194.599 391.599 194.599Z" fill="white"/>
<path d="M408.24 187.227V194.5H407.36V188.151H407.317L405.541 189.33V188.435L407.36 187.227H408.24ZM412.747 194.599C412.448 194.595 412.15 194.538 411.852 194.429C411.554 194.32 411.281 194.137 411.035 193.879C410.789 193.618 410.591 193.267 410.442 192.824C410.293 192.379 410.218 191.82 410.218 191.148C410.218 190.504 410.279 189.933 410.399 189.436C410.52 188.937 410.695 188.516 410.925 188.175C411.155 187.832 411.432 187.572 411.756 187.394C412.083 187.217 412.451 187.128 412.86 187.128C413.268 187.128 413.63 187.21 413.947 187.373C414.267 187.534 414.527 187.759 414.728 188.048C414.929 188.336 415.06 188.669 415.119 189.045H414.252C414.172 188.719 414.016 188.448 413.784 188.232C413.552 188.017 413.244 187.909 412.86 187.909C412.297 187.909 411.853 188.154 411.529 188.644C411.207 189.134 411.045 189.822 411.042 190.707H411.099C411.232 190.506 411.389 190.335 411.571 190.192C411.756 190.048 411.96 189.937 412.182 189.859C412.405 189.781 412.64 189.741 412.889 189.741C413.305 189.741 413.687 189.846 414.032 190.054C414.378 190.26 414.655 190.545 414.863 190.91C415.072 191.272 415.176 191.688 415.176 192.156C415.176 192.606 415.075 193.018 414.874 193.392C414.673 193.764 414.39 194.06 414.025 194.28C413.663 194.498 413.237 194.604 412.747 194.599ZM412.747 193.818C413.045 193.818 413.313 193.744 413.549 193.594C413.788 193.445 413.977 193.245 414.114 192.994C414.254 192.743 414.323 192.464 414.323 192.156C414.323 191.856 414.256 191.582 414.121 191.336C413.988 191.087 413.805 190.89 413.571 190.743C413.339 190.596 413.073 190.523 412.775 190.523C412.55 190.523 412.341 190.568 412.147 190.658C411.952 190.745 411.782 190.866 411.635 191.02C411.491 191.174 411.377 191.35 411.294 191.549C411.211 191.746 411.17 191.953 411.17 192.17C411.17 192.459 411.237 192.729 411.372 192.98C411.51 193.231 411.697 193.433 411.934 193.587C412.173 193.741 412.444 193.818 412.747 193.818Z" fill="white"/>
<path d="M429.587 187.227V194.5H428.707V188.151H428.664L426.888 189.33V188.435L428.707 187.227H429.587ZM431.906 194.5L435.159 188.065V188.009H431.409V187.227H436.068V188.051L432.83 194.5H431.906Z" fill="white"/>
<path d="M450.446 187.227V194.5H449.565V188.151H449.523L447.747 189.33V188.435L449.565 187.227H450.446ZM454.867 194.599C454.38 194.599 453.949 194.513 453.575 194.34C453.203 194.165 452.913 193.925 452.705 193.619C452.496 193.312 452.393 192.961 452.396 192.568C452.393 192.26 452.454 191.976 452.577 191.716C452.7 191.453 452.868 191.234 453.081 191.059C453.296 190.881 453.537 190.769 453.802 190.722V190.679C453.454 190.589 453.177 190.394 452.971 190.093C452.765 189.79 452.663 189.446 452.666 189.06C452.663 188.69 452.757 188.36 452.946 188.069C453.135 187.778 453.396 187.548 453.727 187.38C454.061 187.212 454.441 187.128 454.867 187.128C455.289 187.128 455.665 187.212 455.997 187.38C456.328 187.548 456.588 187.778 456.778 188.069C456.97 188.36 457.067 188.69 457.069 189.06C457.067 189.446 456.961 189.79 456.753 190.093C456.547 190.394 456.273 190.589 455.933 190.679V190.722C456.195 190.769 456.432 190.881 456.643 191.059C456.854 191.234 457.022 191.453 457.147 191.716C457.273 191.976 457.336 192.26 457.339 192.568C457.336 192.961 457.23 193.312 457.019 193.619C456.811 193.925 456.521 194.165 456.149 194.34C455.78 194.513 455.353 194.599 454.867 194.599ZM454.867 193.818C455.196 193.818 455.48 193.765 455.72 193.658C455.959 193.552 456.143 193.402 456.273 193.207C456.404 193.013 456.47 192.786 456.472 192.526C456.47 192.251 456.399 192.008 456.259 191.798C456.12 191.587 455.929 191.421 455.688 191.3C455.448 191.18 455.175 191.119 454.867 191.119C454.557 191.119 454.28 191.18 454.036 191.3C453.795 191.421 453.604 191.587 453.465 191.798C453.327 192.008 453.26 192.251 453.262 192.526C453.26 192.786 453.323 193.013 453.45 193.207C453.581 193.402 453.766 193.552 454.008 193.658C454.249 193.765 454.536 193.818 454.867 193.818ZM454.867 190.366C455.128 190.366 455.358 190.314 455.56 190.21C455.763 190.106 455.923 189.96 456.039 189.773C456.155 189.586 456.214 189.367 456.217 189.116C456.214 188.87 456.156 188.656 456.043 188.474C455.929 188.289 455.772 188.147 455.57 188.048C455.369 187.946 455.135 187.895 454.867 187.895C454.595 187.895 454.357 187.946 454.153 188.048C453.95 188.147 453.792 188.289 453.681 188.474C453.57 188.656 453.515 188.87 453.518 189.116C453.515 189.367 453.571 189.586 453.685 189.773C453.801 189.96 453.961 190.106 454.164 190.21C454.368 190.314 454.602 190.366 454.867 190.366Z" fill="white"/>
<path d="M471.49 187.227V194.5H470.61V188.151H470.567L468.792 189.33V188.435L470.61 187.227H471.49ZM475.897 187.128C476.196 187.13 476.494 187.187 476.792 187.298C477.091 187.41 477.363 187.594 477.609 187.852C477.855 188.108 478.053 188.457 478.202 188.9C478.351 189.343 478.426 189.898 478.426 190.565C478.426 191.212 478.364 191.786 478.241 192.288C478.12 192.787 477.945 193.209 477.716 193.552C477.488 193.895 477.211 194.156 476.885 194.333C476.56 194.511 476.193 194.599 475.784 194.599C475.376 194.599 475.013 194.519 474.693 194.358C474.376 194.195 474.116 193.969 473.912 193.68C473.711 193.388 473.582 193.051 473.525 192.668H474.392C474.47 193.001 474.625 193.277 474.857 193.495C475.091 193.71 475.4 193.818 475.784 193.818C476.345 193.818 476.787 193.573 477.112 193.083C477.439 192.593 477.602 191.901 477.602 191.006H477.545C477.412 191.205 477.255 191.376 477.073 191.521C476.89 191.665 476.688 191.776 476.466 191.854C476.243 191.933 476.006 191.972 475.755 191.972C475.339 191.972 474.956 191.869 474.608 191.663C474.263 191.454 473.986 191.169 473.777 190.807C473.571 190.442 473.468 190.026 473.468 189.557C473.468 189.112 473.568 188.705 473.767 188.335C473.968 187.964 474.25 187.668 474.612 187.447C474.976 187.227 475.405 187.121 475.897 187.128ZM475.897 187.909C475.599 187.909 475.33 187.984 475.091 188.133C474.854 188.28 474.666 188.478 474.527 188.729C474.389 188.978 474.321 189.254 474.321 189.557C474.321 189.86 474.387 190.136 474.519 190.384C474.654 190.63 474.838 190.827 475.07 190.974C475.304 191.118 475.571 191.19 475.869 191.19C476.094 191.19 476.303 191.147 476.497 191.059C476.692 190.969 476.861 190.847 477.005 190.693C477.152 190.537 477.267 190.361 477.35 190.164C477.433 189.965 477.474 189.758 477.474 189.543C477.474 189.259 477.405 188.992 477.268 188.744C477.133 188.495 476.946 188.294 476.707 188.14C476.47 187.986 476.2 187.909 475.897 187.909Z" fill="white"/>
<path d="M489.309 194.5V193.861L491.709 191.233C491.991 190.925 492.223 190.658 492.405 190.43C492.588 190.201 492.723 189.985 492.81 189.784C492.9 189.58 492.945 189.367 492.945 189.145C492.945 188.889 492.884 188.668 492.761 188.481C492.64 188.294 492.474 188.149 492.263 188.048C492.053 187.946 491.816 187.895 491.553 187.895C491.274 187.895 491.03 187.953 490.822 188.069C490.616 188.183 490.456 188.342 490.342 188.548C490.231 188.754 490.175 188.996 490.175 189.273H489.337C489.337 188.847 489.436 188.473 489.632 188.151C489.829 187.829 490.096 187.578 490.435 187.398C490.776 187.218 491.158 187.128 491.582 187.128C492.008 187.128 492.385 187.218 492.714 187.398C493.043 187.578 493.302 187.82 493.489 188.126C493.676 188.431 493.769 188.771 493.769 189.145C493.769 189.412 493.721 189.674 493.624 189.93C493.529 190.183 493.363 190.466 493.126 190.778C492.892 191.089 492.566 191.467 492.15 191.915L490.516 193.662V193.719H493.897V194.5H489.309ZM497.736 194.599C497.201 194.599 496.745 194.454 496.369 194.163C495.992 193.869 495.704 193.444 495.506 192.888C495.307 192.329 495.207 191.654 495.207 190.864C495.207 190.078 495.307 189.406 495.506 188.85C495.707 188.291 495.996 187.865 496.372 187.572C496.751 187.276 497.205 187.128 497.736 187.128C498.266 187.128 498.719 187.276 499.096 187.572C499.475 187.865 499.763 188.291 499.962 188.85C500.164 189.406 500.264 190.078 500.264 190.864C500.264 191.654 500.165 192.329 499.966 192.888C499.767 193.444 499.479 193.869 499.103 194.163C498.726 194.454 498.271 194.599 497.736 194.599ZM497.736 193.818C498.266 193.818 498.678 193.562 498.972 193.051C499.265 192.54 499.412 191.811 499.412 190.864C499.412 190.234 499.344 189.698 499.209 189.255C499.077 188.812 498.885 188.475 498.634 188.243C498.386 188.011 498.086 187.895 497.736 187.895C497.21 187.895 496.799 188.154 496.503 188.673C496.208 189.189 496.06 189.919 496.06 190.864C496.06 191.493 496.126 192.028 496.258 192.469C496.391 192.909 496.582 193.244 496.83 193.474C497.081 193.703 497.383 193.818 497.736 193.818Z" fill="white"/>
<path d="M511.193 194.5V193.861L513.594 191.233C513.875 190.925 514.107 190.658 514.29 190.43C514.472 190.201 514.607 189.985 514.694 189.784C514.784 189.58 514.829 189.367 514.829 189.145C514.829 188.889 514.768 188.668 514.645 188.481C514.524 188.294 514.358 188.149 514.148 188.048C513.937 187.946 513.7 187.895 513.437 187.895C513.158 187.895 512.914 187.953 512.706 188.069C512.5 188.183 512.34 188.342 512.226 188.548C512.115 188.754 512.059 188.996 512.059 189.273H511.221C511.221 188.847 511.32 188.473 511.516 188.151C511.713 187.829 511.98 187.578 512.319 187.398C512.66 187.218 513.042 187.128 513.466 187.128C513.892 187.128 514.269 187.218 514.599 187.398C514.928 187.578 515.186 187.82 515.373 188.126C515.56 188.431 515.653 188.771 515.653 189.145C515.653 189.412 515.605 189.674 515.508 189.93C515.413 190.183 515.247 190.466 515.01 190.778C514.776 191.089 514.451 191.467 514.034 191.915L512.4 193.662V193.719H515.781V194.5H511.193ZM519.805 187.227V194.5H518.924V188.151H518.881L517.106 189.33V188.435L518.924 187.227H519.805Z" fill="white"/>
<path d="M531.573 194.5V193.861L533.974 191.233C534.256 190.925 534.488 190.658 534.67 190.43C534.852 190.201 534.987 189.985 535.075 189.784C535.165 189.58 535.21 189.367 535.21 189.145C535.21 188.889 535.148 188.668 535.025 188.481C534.904 188.294 534.738 188.149 534.528 188.048C534.317 187.946 534.08 187.895 533.818 187.895C533.538 187.895 533.294 187.953 533.086 188.069C532.88 188.183 532.72 188.342 532.607 188.548C532.495 188.754 532.44 188.996 532.44 189.273H531.602C531.602 188.847 531.7 188.473 531.896 188.151C532.093 187.829 532.36 187.578 532.699 187.398C533.04 187.218 533.422 187.128 533.846 187.128C534.272 187.128 534.65 187.218 534.979 187.398C535.308 187.578 535.566 187.82 535.753 188.126C535.94 188.431 536.033 188.771 536.033 189.145C536.033 189.412 535.985 189.674 535.888 189.93C535.793 190.183 535.627 190.466 535.391 190.778C535.156 191.089 534.831 191.467 534.414 191.915L532.781 193.662V193.719H536.161V194.5H531.573ZM537.628 194.5V193.861L540.028 191.233C540.31 190.925 540.542 190.658 540.725 190.43C540.907 190.201 541.042 189.985 541.129 189.784C541.219 189.58 541.264 189.367 541.264 189.145C541.264 188.889 541.203 188.668 541.08 188.481C540.959 188.294 540.793 188.149 540.582 188.048C540.372 187.946 540.135 187.895 539.872 187.895C539.593 187.895 539.349 187.953 539.141 188.069C538.935 188.183 538.775 188.342 538.661 188.548C538.55 188.754 538.494 188.996 538.494 189.273H537.656C537.656 188.847 537.755 188.473 537.951 188.151C538.148 187.829 538.415 187.578 538.754 187.398C539.095 187.218 539.477 187.128 539.901 187.128C540.327 187.128 540.704 187.218 541.033 187.398C541.363 187.578 541.621 187.82 541.808 188.126C541.995 188.431 542.088 188.771 542.088 189.145C542.088 189.412 542.04 189.674 541.943 189.93C541.848 190.183 541.682 190.466 541.445 190.778C541.211 191.089 540.885 191.467 540.469 191.915L538.835 193.662V193.719H542.216V194.5H537.628Z" fill="white"/>
<path d="M552.5 194.5V193.861L554.901 191.233C555.183 190.925 555.415 190.658 555.597 190.43C555.779 190.201 555.914 189.985 556.002 189.784C556.092 189.58 556.137 189.367 556.137 189.145C556.137 188.889 556.075 188.668 555.952 188.481C555.831 188.294 555.666 188.149 555.455 188.048C555.244 187.946 555.007 187.895 554.745 187.895C554.465 187.895 554.221 187.953 554.013 188.069C553.807 188.183 553.647 188.342 553.534 188.548C553.422 188.754 553.367 188.996 553.367 189.273H552.529C552.529 188.847 552.627 188.473 552.823 188.151C553.02 187.829 553.287 187.578 553.626 187.398C553.967 187.218 554.349 187.128 554.773 187.128C555.199 187.128 555.577 187.218 555.906 187.398C556.235 187.578 556.493 187.82 556.68 188.126C556.867 188.431 556.961 188.771 556.961 189.145C556.961 189.412 556.912 189.674 556.815 189.93C556.72 190.183 556.555 190.466 556.318 190.778C556.083 191.089 555.758 191.467 555.341 191.915L553.708 193.662V193.719H557.088V194.5H552.5ZM561.012 194.599C560.544 194.599 560.126 194.519 559.759 194.358C559.394 194.197 559.104 193.973 558.889 193.687C558.676 193.398 558.56 193.063 558.541 192.682H559.436C559.455 192.916 559.535 193.119 559.677 193.289C559.819 193.457 560.005 193.587 560.235 193.68C560.464 193.772 560.719 193.818 560.998 193.818C561.311 193.818 561.588 193.764 561.829 193.655C562.071 193.546 562.26 193.394 562.397 193.2C562.535 193.006 562.603 192.781 562.603 192.526C562.603 192.258 562.537 192.022 562.404 191.819C562.272 191.613 562.078 191.452 561.822 191.336C561.566 191.22 561.254 191.162 560.885 191.162H560.302V190.381H560.885C561.173 190.381 561.427 190.329 561.644 190.224C561.865 190.12 562.036 189.973 562.159 189.784C562.285 189.595 562.348 189.372 562.348 189.116C562.348 188.87 562.293 188.656 562.184 188.474C562.075 188.291 561.921 188.149 561.723 188.048C561.526 187.946 561.294 187.895 561.027 187.895C560.776 187.895 560.539 187.941 560.316 188.033C560.096 188.123 559.916 188.255 559.777 188.428C559.637 188.598 559.561 188.804 559.549 189.045H558.697C558.711 188.664 558.826 188.33 559.042 188.044C559.257 187.755 559.539 187.53 559.887 187.369C560.237 187.208 560.622 187.128 561.041 187.128C561.491 187.128 561.877 187.219 562.198 187.401C562.52 187.581 562.768 187.819 562.941 188.115C563.113 188.411 563.2 188.731 563.2 189.074C563.2 189.483 563.092 189.833 562.877 190.121C562.664 190.41 562.374 190.61 562.007 190.722V190.778C562.466 190.854 562.825 191.049 563.083 191.364C563.341 191.677 563.47 192.064 563.47 192.526C563.47 192.921 563.362 193.276 563.147 193.591C562.934 193.903 562.642 194.15 562.273 194.33C561.904 194.509 561.484 194.599 561.012 194.599Z" fill="white"/>
</svg>
