<svg width="12" height="13" viewBox="0 0 12 13" fill="none" xmlns="http://www.w3.org/2000/svg">
<path fill-rule="evenodd" clip-rule="evenodd" d="M2.72726 3.47274V2.10911H2.18182C1.4287 2.10911 0.818182 2.71963 0.818182 3.47274V4.83638H11.1818V3.47274C11.1818 2.71963 10.5713 2.10911 9.81818 2.10911H9.77271V3.47274H8.27271V2.10911H4.22726V3.47274H2.72726ZM8.27271 1.29093H4.22726V0.200012H2.72726V1.29093H2.18182C0.976833 1.29093 0 2.26776 0 3.47274V4.83638V5.65456V10.0182C0 11.2232 0.976833 12.2 2.18182 12.2H9.81818C11.0232 12.2 12 11.2232 12 10.0182V5.65456V4.83638V3.47274C12 2.26776 11.0232 1.29093 9.81818 1.29093H9.77271V0.200012H8.27271V1.29093ZM11.1818 5.65456V10.0182C11.1818 10.7713 10.5713 11.3818 9.81818 11.3818H2.18182C1.4287 11.3818 0.818182 10.7713 0.818182 10.0182V5.65456H11.1818Z" fill="white"/>
</svg>
